A Data Science Bedtime Story
…
tidytext::stop_words %>%
* inner_join(federalist_words) %>%
  distinct(word)
```
]
 
.panel2-doc_term_stop-rotate[

```
# A tibble: 515 x 1
   word       
   <chr>      
 1 a          
 2 able       
 3 about      
 4 above      
 5 according  
 6 accordingly
 7 actually   
 8 after      
 9 afterwards 
10 again      
# … with 505 more rows
```
…
tidytext::stop_words %>%
* anti_join(federalist_words) %>%
  distinct(word)
```
]
 
.panel2-doc_term_stop-rotate[

```
# A tibble: 213 x 1
   word   
   <chr>  
 1 a's    
 2 across 
 3 ain't  
 4 anybody
 5 anyhow 
 6 anyone 
 7 anyway 
 8 anyways
 9 aren't 
10 asking 
# … with 203 more rows
```
…
count: false
 
### Let's look at the resulting differences in correlation for word counts for the documents. Correlations are about the same for the inner v. right join -- the difference is in the third decimal place, inspecting the most correlated and least correlated docs
.panel1-compare_table-rotate[

```r
*document_correlation_inner
```
]
 
.panel2-compare_table-rotate[

```
# A tibble: 7,140 x 3
   item1               item2               correlation
   <chr>               <chr>                     <dbl>
 1 Madison-Fed No. 41  Madison-Fed No. 43        0.992
 2 Madison-Fed No. 43  Madison-Fed No. 41        0.992
 3 Disputed-Fed No. 63 Madison-Fed No. 41        0.990
 4 Madison-Fed No. 41  Disputed-Fed No. 63       0.990
 5 Disputed-Fed No. 63 Madison-Fed No. 43        0.990
 6 Madison-Fed No. 43  Disputed-Fed No. 63       0.990
 7 Hamilton-Fed No. 76 Hamilton-Fed No. 65       0.990
 8 Hamilton-Fed No. 65 Hamilton-Fed No. 76       0.990
 9 Madison-Fed No. 48  Disputed-Fed No. 63       0.990
10 Disputed-Fed No. 63 Madison-Fed No. 48        0.990
# … with 7,130 more rows
```
…
---
count: false
 
### Let's look at the resulting differences in correlation for word counts for the documents. Correlations are about the same for the inner v. right join -- the difference is in the third decimal place, inspecting the most correlated and least correlated docs
.panel1-compare_table-rotate[

```r
*document_correlation_right
```
]
 
.panel2-compare_table-rotate[

```
# A tibble: 7,140 x 3
   item1               item2               correlation
   <chr>               <chr>                     <dbl>
 1 Madison-Fed No. 41  Madison-Fed No. 43        0.993
 2 Madison-Fed No. 43  Madison-Fed No. 41        0.993
 3 Disputed-Fed No. 63 Madison-Fed No. 41        0.991
 4 Madison-Fed No. 41  Disputed-Fed No. 63       0.991
 5 Disputed-Fed No. 63 Madison-Fed No. 43        0.990
 6 Madison-Fed No. 43  Disputed-Fed No. 63       0.990
 7 Hamilton-Fed No. 76 Hamilton-Fed No. 65       0.990
 8 Hamilton-Fed No. 65 Hamilton-Fed No. 76       0.990
 9 Madison-Fed No. 48  Disputed-Fed No. 63       0.990
10 Disputed-Fed No. 63 Madison-Fed No. 48        0.990
# … with 7,130 more rows
```
…
