A Federalist Papers Whodunnit
…
class: split-40
count: false

.left-code-heat_map-auto[

```r
*document_correlation
```
]
 
.right-output-heat_map-auto[

```
# A tibble: 7,140 x 3
   item1               item2               correlation
   <chr>               <chr>                     <dbl>
 1 Madison-Fed No. 41  Madison-Fed No. 43        0.992
 2 Madison-Fed No. 43  Madison-Fed No. 41        0.992
 3 Disputed-Fed No. 63 Madison-Fed No. 41        0.990
 4 Madison-Fed No. 41  Disputed-Fed No. 63       0.990
 5 Disputed-Fed No. 63 Madison-Fed No. 43        0.990
 6 Madison-Fed No. 43  Disputed-Fed No. 63       0.990
 7 Hamilton-Fed No. 76 Hamilton-Fed No. 65       0.990
 8 Hamilton-Fed No. 65 Hamilton-Fed No. 76       0.990
 9 Madison-Fed No. 48  Disputed-Fed No. 63       0.990
10 Disputed-Fed No. 63 Madison-Fed No. 48        0.990
# … with 7,130 more rows
```
…
class: split-40
count: false

.left-code-pruning-auto[

```r
*document_correlation
```
]
 
.right-output-pruning-auto[

```
# A tibble: 7,140 x 3
   item1               item2               correlation
   <chr>               <chr>                     <dbl>
 1 Madison-Fed No. 41  Madison-Fed No. 43        0.992
 2 Madison-Fed No. 43  Madison-Fed No. 41        0.992
 3 Disputed-Fed No. 63 Madison-Fed No. 41        0.990
 4 Madison-Fed No. 41  Disputed-Fed No. 63       0.990
 5 Disputed-Fed No. 63 Madison-Fed No. 43        0.990
 6 Madison-Fed No. 43  Disputed-Fed No. 63       0.990
 7 Hamilton-Fed No. 76 Hamilton-Fed No. 65       0.990
 8 Hamilton-Fed No. 65 Hamilton-Fed No. 76       0.990
 9 Madison-Fed No. 48  Disputed-Fed No. 63       0.990
10 Disputed-Fed No. 63 Madison-Fed No. 48        0.990
# … with 7,130 more rows
```
…
.left-code-pruning-auto[

```r
document_correlation %>%  
# pruning all but strongest three links
* group_by(item1)
```
]
 
.right-output-pruning-auto[

```
# A tibble: 7,140 x 3
# Groups:   item1 [85]
   item1               item2               correlation
   <chr>               <chr>                     <dbl>
 1 Madison-Fed No. 41  Madison-Fed No. 43        0.992
 2 Madison-Fed No. 43  Madison-Fed No. 41        0.992
 3 Disputed-Fed No. 63 Madison-Fed No. 41        0.990
 4 Madison-Fed No. 41  Disputed-Fed No. 63       0.990
 5 Disputed-Fed No. 63 Madison-Fed No. 43        0.990
 6 Madison-Fed No. 43  Disputed-Fed No. 63       0.990
 7 Hamilton-Fed No. 76 Hamilton-Fed No. 65       0.990
 8 Hamilton-Fed No. 65 Hamilton-Fed No. 76       0.990
 9 Madison-Fed No. 48  Disputed-Fed No. 63       0.990
10 Disputed-Fed No. 63 Madison-Fed No. 48        0.990
# … with 7,130 more rows
```
…
.left-code-pruning-auto[

```r
document_correlation %>%  
# pruning all but strongest three links
  group_by(item1) %>%  
* mutate(rank1 = 1:n())
```
]
 
.right-output-pruning-auto[

```
# A tibble: 7,140 x 4
# Groups:   item1 [85]
   item1               item2               correlation rank1
   <chr>               <chr>                     <dbl> <int>
 1 Madison-Fed No. 41  Madison-Fed No. 43        0.992     1
 2 Madison-Fed No. 43  Madison-Fed No. 41        0.992     1
 3 Disputed-Fed No. 63 Madison-Fed No. 41        0.990     1
 4 Madison-Fed No. 41  Disputed-Fed No. 63       0.990     2
 5 Disputed-Fed No. 63 Madison-Fed No. 43        0.990     2
 6 Madison-Fed No. 43  Disputed-Fed No. 63       0.990     2
 7 Hamilton-Fed No. 76 Hamilton-Fed No. 65       0.990     1
 8 Hamilton-Fed No. 65 Hamilton-Fed No. 76       0.990     1
 9 Madison-Fed No. 48  Disputed-Fed No. 63       0.990     1
10 Disputed-Fed No. 63 Madison-Fed No. 48        0.990     3
# … with 7,130 more rows
```
…
.left-code-pruning-auto[

```r
document_correlation %>%  
# pruning all but strongest three links
  group_by(item1) %>%  
  mutate(rank1 = 1:n()) %>%  
* ungroup()
```
]
 
.right-output-pruning-auto[

```
# A tibble: 7,140 x 4
   item1               item2               correlation rank1
   <chr>               <chr>                     <dbl> <int>
 1 Madison-Fed No. 41  Madison-Fed No. 43        0.992     1
 2 Madison-Fed No. 43  Madison-Fed No. 41        0.992     1
 3 Disputed-Fed No. 63 Madison-Fed No. 41        0.990     1
 4 Madison-Fed No. 41  Disputed-Fed No. 63       0.990     2
 5 Disputed-Fed No. 63 Madison-Fed No. 43        0.990     2
 6 Madison-Fed No. 43  Disputed-Fed No. 63       0.990     2
 7 Hamilton-Fed No. 76 Hamilton-Fed No. 65       0.990     1
 8 Hamilton-Fed No. 65 Hamilton-Fed No. 76       0.990     1
 9 Madison-Fed No. 48  Disputed-Fed No. 63       0.990     1
10 Disputed-Fed No. 63 Madison-Fed No. 48        0.990     3
# … with 7,130 more rows
```
…
```r
document_correlation %>%  
# pruning all but strongest three links
  group_by(item1) %>%  
  mutate(rank1 = 1:n()) %>%  
  ungroup() %>%  
* group_by(item2)
```
]
 
.right-output-pruning-auto[

```
# A tibble: 7,140 x 4
# Groups:   item2 [85]
   item1               item2               correlation rank1
   <chr>               <chr>                     <dbl> <int>
 1 Madison-Fed No. 41  Madison-Fed No. 43        0.992     1
 2 Madison-Fed No. 43  Madison-Fed No. 41        0.992     1
 3 Disputed-Fed No. 63 Madison-Fed No. 41        0.990     1
 4 Madison-Fed No. 41  Disputed-Fed No. 63       0.990     2
 5 Disputed-Fed No. 63 Madison-Fed No. 43        0.990     2
 6 Madison-Fed No. 43  Disputed-Fed No. 63       0.990     2
 7 Hamilton-Fed No. 76 Hamilton-Fed No. 65       0.990     1
 8 Hamilton-Fed No. 65 Hamilton-Fed No. 76       0.990     1
 9 Madison-Fed No. 48  Disputed-Fed No. 63       0.990     1
10 Disputed-Fed No. 63 Madison-Fed No. 48        0.990     3
# … with 7,130 more rows
```
…
```r
document_correlation %>%  
# pruning all but strongest three links
  group_by(item1) %>%  
  mutate(rank1 = 1:n()) %>%  
  ungroup() %>%  
  group_by(item2) %>%  
* mutate(rank2 = 1:n())
```
]
 
.right-output-pruning-auto[

```
# A tibble: 7,140 x 5
# Groups:   item2 [85]
   item1               item2               correlation rank1 rank2
   <chr>               <chr>                     <dbl> <int> <int>
 1 Madison-Fed No. 41  Madison-Fed No. 43        0.992     1     1
 2 Madison-Fed No. 43  Madison-Fed No. 41        0.992     1     1
 3 Disputed-Fed No. 63 Madison-Fed No. 41        0.990     1     2
 4 Madison-Fed No. 41  Disputed-Fed No. 63       0.990     2     1
 5 Disputed-Fed No. 63 Madison-Fed No. 43        0.990     2     2
 6 Madison-Fed No. 43  Disputed-Fed No. 63       0.990     2     2
 7 Hamilton-Fed No. 76 Hamilton-Fed No. 65       0.990     1     1
 8 Hamilton-Fed No. 65 Hamilton-Fed No. 76       0.990     1     1
 9 Madison-Fed No. 48  Disputed-Fed No. 63       0.990     1     3
10 Disputed-Fed No. 63 Madison-Fed No. 48        0.990     3     1
# … with 7,130 more rows
```
…
.right-output-pruning-auto[

```
# A tibble: 404 x 5
# Groups:   item2 [85]
   item1               item2               correlation rank1 rank2
   <chr>               <chr>                     <dbl> <int> <int>
 1 Madison-Fed No. 41  Madison-Fed No. 43        0.992     1     1
 2 Madison-Fed No. 43  Madison-Fed No. 41        0.992     1     1
 3 Disputed-Fed No. 63 Madison-Fed No. 41        0.990     1     2
 4 Madison-Fed No. 41  Disputed-Fed No. 63       0.990     2     1
 5 Disputed-Fed No. 63 Madison-Fed No. 43        0.990     2     2
 6 Madison-Fed No. 43  Disputed-Fed No. 63       0.990     2     2
 7 Hamilton-Fed No. 76 Hamilton-Fed No. 65       0.990     1     1
 8 Hamilton-Fed No. 65 Hamilton-Fed No. 76       0.990     1     1
 9 Madison-Fed No. 48  Disputed-Fed No. 63       0.990     1     3
10 Disputed-Fed No. 63 Madison-Fed No. 48        0.990     3     1
# … with 394 more rows
```
…
.left-code-fed_nodes-auto[

```r
federalist_network_with_node_features %>%  
* as_tibble()
```
]
 
.right-output-fed_nodes-auto[

```
# A tibble: 85 x 6
   name     title                venue     date       author text               
   <chr>    <chr>                <chr>     <date>     <chr>  <chr>              
 1 Madison… General View of the… For the … NA         Madis… "To the People of …
 2 Madison… The Same Subject Co… For the … NA         Madis… "To the People of …
 3 Dispute… The Senate Continued For the … NA         Dispu… "To the People of …
 4 Hamilto… The Appointing Powe… From the… 1788-04-01 Hamil… "To the People of …
 5 Hamilto… The Powers of the S… From the… 1788-03-07 Hamil… "To the People of …
 6 Madison… These Departments S… From the… 1788-02-01 Madis… "To the People of …
 7 Hamilto… The Consequences of… From the… 1787-11-20 Hamil… "To the People of …
 8 Hamilto… The Utility of the … From the… 1787-11-27 Hamil… "To the People of …
 9 Hamilto… The Same Subject Co… From the… 1788-01-01 Hamil… "To the People of …
10 Hamilto… The Same Subject Co… From the… 1788-01-08 Hamil… "To the People of …
# … with 75 more rows
```
…
.left-code-fed_nodes-auto[

```r
federalist_network_with_node_features %>%  
  as_tibble() %>%  
* mutate(name = fct_inorder(name))
```
]
 
.right-output-fed_nodes-auto[

```
# A tibble: 85 x 6
   name     title                venue     date       author text               
   <fct>    <chr>                <chr>     <date>     <chr>  <chr>              
 1 Madison… General View of the… For the … NA         Madis… "To the People of …
 2 Madison… The Same Subject Co… For the … NA         Madis… "To the People of …
 3 Dispute… The Senate Continued For the … NA         Dispu… "To the People of …
 4 Hamilto… The Appointing Powe… From the… 1788-04-01 Hamil… "To the People of …
 5 Hamilto… The Powers of the S… From the… 1788-03-07 Hamil… "To the People of …
 6 Madison… These Departments S… From the… 1788-02-01 Madis… "To the People of …
 7 Hamilto… The Consequences of… From the… 1787-11-20 Hamil… "To the People of …
 8 Hamilto… The Utility of the … From the… 1787-11-27 Hamil… "To the People of …
 9 Hamilto… The Same Subject Co… From the… 1788-01-01 Hamil… "To the People of …
10 Hamilto… The Same Subject Co… From the… 1788-01-08 Hamil… "To the People of …
# … with 75 more rows
```
…
.left-code-fed_nodes-auto[

```r
federalist_network_with_node_features %>%  
  as_tibble() %>%  
  mutate(name = fct_inorder(name)) %>%  
* mutate(id = as.numeric(forcats::fct_inorder(name)))
```
]
 
.right-output-fed_nodes-auto[

```
# A tibble: 85 x 7
   name     title             venue     date       author text                id
   <fct>    <chr>             <chr>     <date>     <chr>  <chr>            <dbl>
 1 Madison… General View of … For the … NA         Madis… "To the People …     1
 2 Madison… The Same Subject… For the … NA         Madis… "To the People …     2
 3 Dispute… The Senate Conti… For the … NA         Dispu… "To the People …     3
 4 Hamilto… The Appointing P… From the… 1788-04-01 Hamil… "To the People …     4
 5 Hamilto… The Powers of th… From the… 1788-03-07 Hamil… "To the People …     5
 6 Madison… These Department… From the… 1788-02-01 Madis… "To the People …     6
 7 Hamilto… The Consequences… From the… 1787-11-20 Hamil… "To the People …     7
 8 Hamilto… The Utility of t… From the… 1787-11-27 Hamil… "To the People …     8
 9 Hamilto… The Same Subject… From the… 1788-01-01 Hamil… "To the People …     9
10 Hamilto… The Same Subject… From the… 1788-01-08 Hamil… "To the People …    10
# … with 75 more rows
```
…
.right-output-fed_nodes-auto[

```
# A tibble: 85 x 8
   name    title        venue   date       author text           id author_color
   <fct>   <chr>        <chr>   <date>     <chr>  <chr>       <dbl> <chr>       
 1 Madiso… General Vie… For th… NA         Madis… "To the Pe…     1 navy        
 2 Madiso… The Same Su… For th… NA         Madis… "To the Pe…     2 navy        
 3 Disput… The Senate … For th… NA         Dispu… "To the Pe…     3 goldenrod4  
 4 Hamilt… The Appoint… From t… 1788-04-01 Hamil… "To the Pe…     4 steelblue2  
 5 Hamilt… The Powers … From t… 1788-03-07 Hamil… "To the Pe…     5 steelblue2  
 6 Madiso… These Depar… From t… 1788-02-01 Madis… "To the Pe…     6 navy        
 7 Hamilt… The Consequ… From t… 1787-11-20 Hamil… "To the Pe…     7 steelblue2  
 8 Hamilt… The Utility… From t… 1787-11-27 Hamil… "To the Pe…     8 steelblue2  
 9 Hamilt… The Same Su… From t… 1788-01-01 Hamil… "To the Pe…     9 steelblue2  
10 Hamilt… The Same Su… From t… 1788-01-08 Hamil… "To the Pe…    10 steelblue2  
# … with 75 more rows
```
…
.left-code-stop_words-auto[

```r
library(tidytext)  
*stop_words
```
]
 
.right-output-stop_words-auto[

```
# A tibble: 1,149 x 2
   word        lexicon
   <chr>       <chr>  
 1 a           SMART  
 2 a's         SMART  
 3 able        SMART  
 4 about       SMART  
 5 above       SMART  
 6 according   SMART  
 7 accordingly SMART  
 8 across      SMART  
 9 actually    SMART  
10 after       SMART  
# … with 1,139 more rows
```
…
.left-code-stop_words-auto[

```r
library(tidytext)  
stop_words %>%  
* distinct()
```
]
 
.right-output-stop_words-auto[

```
# A tibble: 1,142 x 2
   word        lexicon
   <chr>       <chr>  
 1 a           SMART  
 2 a's         SMART  
 3 able        SMART  
 4 about       SMART  
 5 above       SMART  
 6 according   SMART  
 7 accordingly SMART  
 8 across      SMART  
 9 actually    SMART  
10 after       SMART  
# … with 1,132 more rows
```
…
*stop_words
```
]
 
.right-output-stop_words-auto[

```
# A tibble: 1,149 x 2
   word        lexicon
   <chr>       <chr>  
 1 a           SMART  
 2 a's         SMART  
 3 able        SMART  
 4 about       SMART  
 5 above       SMART  
 6 according   SMART  
 7 accordingly SMART  
 8 across      SMART  
 9 actually    SMART  
10 after       SMART  
# … with 1,139 more rows
```
…
stop_words %>%  
* distinct()
```
]
 
.right-output-stop_words-auto[

```
# A tibble: 1,142 x 2
   word        lexicon
   <chr>       <chr>  
 1 a           SMART  
 2 a's         SMART  
 3 able        SMART  
 4 about       SMART  
 5 above       SMART  
 6 according   SMART  
 7 accordingly SMART  
 8 across      SMART  
 9 actually    SMART  
10 after       SMART  
# … with 1,132 more rows
```
…
stop_words %>%  
  distinct() %>%  
* group_by(word)
```
]
 
.right-output-stop_words-auto[

```
# A tibble: 1,142 x 2
# Groups:   word [728]
   word        lexicon
   <chr>       <chr>  
 1 a           SMART  
 2 a's         SMART  
 3 able        SMART  
 4 about       SMART  
 5 above       SMART  
 6 according   SMART  
 7 accordingly SMART  
 8 across      SMART  
 9 actually    SMART  
10 after       SMART  
# … with 1,132 more rows
```
…
stop_words %>%  
  distinct() %>%  
  group_by(word) %>%  
* mutate(num_dictionaries = n())
```
]
 
.right-output-stop_words-auto[

```
# A tibble: 1,142 x 3
# Groups:   word [728]
   word        lexicon num_dictionaries
   <chr>       <chr>              <int>
 1 a           SMART                  3
 2 a's         SMART                  1
 3 able        SMART                  1
 4 about       SMART                  3
 5 above       SMART                  3
 6 according   SMART                  1
 7 accordingly SMART                  1
 8 across      SMART                  2
 9 actually    SMART                  1
10 after       SMART                  3
# … with 1,132 more rows
```
…
stop_words %>%  
  distinct() %>%  
  group_by(word) %>%  
  mutate(num_dictionaries = n()) %>%  
* arrange(-num_dictionaries, word)
```
]
 
.right-output-stop_words-auto[

```
# A tibble: 1,142 x 3
# Groups:   word [728]
   word  lexicon  num_dictionaries
   <chr> <chr>               <int>
 1 a     SMART                   3
 2 a     snowball                3
 3 a     onix                    3
 4 about SMART                   3
 5 about snowball                3
 6 about onix                    3
 7 above SMART                   3
 8 above snowball                3
 9 above onix                    3
10 after SMART                   3
# … with 1,132 more rows
```
…
stop_words %>%  
  distinct() %>%  
  group_by(word) %>%  
  mutate(num_dictionaries = n()) %>%  
  arrange(-num_dictionaries, word) %>%  
* ungroup()
```
]
 
.right-output-stop_words-auto[

```
# A tibble: 1,142 x 3
   word  lexicon  num_dictionaries
   <chr> <chr>               <int>
 1 a     SMART                   3
 2 a     snowball                3
 3 a     onix                    3
 4 about SMART                   3
 5 about snowball                3
 6 about onix                    3
 7 above SMART                   3
 8 above snowball                3
 9 above onix                    3
10 after SMART                   3
# … with 1,132 more rows
```
…
stop_words %>%  
  distinct() %>%  
  group_by(word) %>%  
  mutate(num_dictionaries = n()) %>%  
  arrange(-num_dictionaries, word) %>%  
  ungroup() %>%  
* mutate(word = fct_rev(fct_inorder(word)))
```
]
 
.right-output-stop_words-auto[

```
# A tibble: 1,142 x 3
   word  lexicon  num_dictionaries
   <fct> <chr>               <int>
 1 a     SMART                   3
 2 a     snowball                3
 3 a     onix                    3
 4 about SMART                   3
 5 about snowball                3
 6 about onix                    3
 7 above SMART                   3
 8 above snowball                3
 9 above onix                    3
10 after SMART                   3
# … with 1,132 more rows
```
…
class: split-40
count: false

.left-code-non_distinct-auto[

```r
*stop_words
```
]
 
.right-output-non_distinct-auto[

```
# A tibble: 1,149 x 2
   word        lexicon
   <chr>       <chr>  
 1 a           SMART  
 2 a's         SMART  
 3 able        SMART  
 4 about       SMART  
 5 above       SMART  
 6 according   SMART  
 7 accordingly SMART  
 8 across      SMART  
 9 actually    SMART  
10 after       SMART  
# … with 1,139 more rows
```
…
.left-code-non_distinct-auto[

```r
stop_words %>%  
* group_by(word, lexicon)
```
]
 
.right-output-non_distinct-auto[

```
# A tibble: 1,149 x 2
# Groups:   word, lexicon [1,142]
   word        lexicon
   <chr>       <chr>  
 1 a           SMART  
 2 a's         SMART  
 3 able        SMART  
 4 about       SMART  
 5 above       SMART  
 6 according   SMART  
 7 accordingly SMART  
 8 across      SMART  
 9 actually    SMART  
10 after       SMART  
# … with 1,139 more rows
```
…
.left-code-non_distinct-auto[

```r
stop_words %>%  
  group_by(word, lexicon) %>%  
* count()
```
]
 
.right-output-non_distinct-auto[

```
# A tibble: 1,142 x 3
# Groups:   word, lexicon [1,142]
   word  lexicon      n
   <chr> <chr>    <int>
 1 a     onix         1
 2 a     SMART        1
 3 a     snowball     1
 4 a's   SMART        1
 5 able  SMART        1
 6 about onix         1
 7 about SMART        1
 8 about snowball     1
 9 above onix         1
10 above SMART        1
# … with 1,132 more rows
```
…
