‘extending ggplot2’
…
```r
*tibble(
* x = sin(seq(0, 2*pi, length.out = 100)),
* y = cos(seq(0, 2*pi, length.out = 100)),
* index = 1:100,
* type = "circle"
*) 
```
]
 
.panel2-spring-auto[

```
# A tibble: 100 x 4
        x     y index type  
    <dbl> <dbl> <int> <chr> 
 1 0      1         1 circle
 2 0.0634 0.998     2 circle
 3 0.127  0.992     3 circle
 4 0.189  0.982     4 circle
 5 0.251  0.968     5 circle
 6 0.312  0.950     6 circle
 7 0.372  0.928     7 circle
 8 0.430  0.903     8 circle
 9 0.486  0.874     9 circle
10 0.541  0.841    10 circle
# … with 90 more rows
```
…
spring <- circle

spring$x + seq(0, 1.5, length.out = 100) -> spring$x
spring$type <- "spring"

*rbind(circle, spring)
```
]
 
.panel2-spring-auto[

```
# A tibble: 200 x 4
        x     y index type  
    <dbl> <dbl> <int> <chr> 
 1 0      1         1 circle
 2 0.0634 0.998     2 circle
 3 0.127  0.992     3 circle
 4 0.189  0.982     4 circle
 5 0.251  0.968     5 circle
 6 0.312  0.950     6 circle
 7 0.372  0.928     7 circle
 8 0.430  0.903     8 circle
 9 0.486  0.874     9 circle
10 0.541  0.841    10 circle
# … with 190 more rows
```
…
