Measles Data
…
.column[.content[

```r
library(tidyverse)  
library(rvest)  

url_wsj <- "https://raw.githubusercontent.com/WSJ/measles-data/master/all-measles-rates.csv"  

*read_csv(url_wsj)
```
]]
.column[.content[

```
# A tibble: 46,411 x 14
   index state year  name  type  city  county district enroll   mmr overall
   <dbl> <chr> <chr> <chr> <chr> <chr> <chr>  <lgl>     <dbl> <dbl>   <dbl>
 1     1 Ariz… 2018… A J … Publ… Noga… Santa… NA           51   100      -1
 2     2 Ariz… 2018… Acad… Char… Tucs… Pima   NA           22   100      -1
 3     3 Ariz… 2018… Acad… Char… Tucs… Pima   NA           85   100      -1
 4     4 Ariz… 2018… Acad… Char… Phoe… Maric… NA           60   100      -1
 5     5 Ariz… 2018… Accl… Char… Phoe… Maric… NA           43   100      -1
 6     6 Ariz… 2018… Alfr… Publ… Phoe… Maric… NA           36   100      -1
 7     7 Ariz… 2018… All … Char… Phoe… Maric… NA           24   100      -1
 8     8 Ariz… 2018… Amer… Char… Yuma  Yuma   NA           22   100      -1
 9     9 Ariz… 2018… Ariz… Priv… Phoe… Maric… NA           26   100      -1
10    10 Ariz… 2018… Ariz… Publ… San … Yuma   NA           78   100      -1
# … with 46,401 more rows, and 3 more variables: xrel <lgl>, xmed <dbl>,
#   xper <dbl>
```
…
glue::glue("https://raw.githubusercontent.com/WSJ/measles-data/master/individual-states/{raw_states}.csv") %>%  
* map(read_csv)
```
]]
.column[.content[

```
[[1]]
# A tibble: 1,343 x 13
   index state year  name  type  city  county enroll   mmr  xmed  xper   lat
   <dbl> <chr> <chr> <chr> <chr> <chr> <chr>   <dbl> <dbl> <dbl> <dbl> <dbl>
 1     1 Ariz… 2018… A J … Publ… Noga… Santa…     51   100  0     0     31.3
 2     2 Ariz… 2018… Acad… Char… Tucs… Pima       22   100  0     0     32.2
 3     3 Ariz… 2018… Acad… Char… Tucs… Pima       85   100  0     0     32.1
 4     4 Ariz… 2018… Acad… Char… Phoe… Maric…     60   100  0     0     33.5
 5     5 Ariz… 2018… Accl… Char… Phoe… Maric…     43   100  2.33  2.33  33.5
 6     6 Ariz… 2018… Alfr… Publ… Phoe… Maric…     36   100  0     0     33.4
 7     7 Ariz… 2018… All … Char… Phoe… Maric…     24   100  0     4.17  33.5
 8     8 Ariz… 2018… Amer… Char… Yuma  Yuma       22   100  0     0     32.7
 9     9 Ariz… 2018… Ariz… Priv… Phoe… Maric…     26   100  0     0     33.4
10    10 Ariz… 2018… Ariz… Publ… San … Yuma       78   100  0     0     32.5
# … with 1,333 more rows, and 1 more variable: lng <dbl>

[[2]]
# A tibble: 481 x 9
   index state    year   name                 city      enroll   mmr   lat   lng
   <dbl> <chr>    <chr>  <chr>                <chr>      <dbl> <dbl> <dbl> <dbl>
 1     1 Arkansas 2018-… Maumelle Charter El… Maumelle     717  96.1  34.9 -92.4
 2     2 Arkansas 2018-… Thomas C Brunson El… Warren       279  95.7  33.6 -92.1
 3     3 Arkansas 2018-… Parkway Elementary   Alexander    508  94.9  34.6 -92.5
 4     4 Arkansas 2018-… Sunnymede Elementary Fort Smi…    656  94.1  35.4 -94.4
 5     5 Arkansas 2018-… Don Roberts Element… Little R…    992  93.8  34.8 -92.5
 6     6 Arkansas 2018-… Rena Elementary      Van Buren    485  93.6  35.5 -94.4
 7     7 Arkansas 2018-… Jefferson Elementary Little R…    412  93.4  34.8 -92.3
 8     8 Arkansas 2018-… John P. Woods Eleme… Fort Smi…    631  93.3  35.4 -94.3
 9     9 Arkansas 2018-… Perrin Elementary    Benton       689  93.2  34.6 -92.6
10    10 Arkansas 2018-… Springhill Elementa… Bryant       524  92.7  34.7 -92.5
# … with 471 more rows

[[3]]
# A tibble: 8,066 x 15
   index state year  name  type  city  county enroll   mmr overall  xmed xper 
   <dbl> <chr> <chr> <chr> <chr> <chr> <chr>   <dbl> <dbl>   <dbl> <dbl> <lgl>
 1     1 Cali… 2018… Abby… Publ… Teme… River…    137    99      96     2 NA   
 2     2 Cali… 2018… Abra… Publ… Sant… Orange    135    99      99     1 NA   
 3     3 Cali… 2018… Achi… Publ… Oakl… Alame…    116    99      99     1 NA   
 4     4 Cali… 2018… Ada … Publ… Hunt… Orange    100    99      97     0 NA   
 5     5 Cali… 2018… Adam… Publ… Sant… Santa…    121    99      99     1 NA   
 6     6 Cali… 2018… Adam… Publ… Sant… Santa…    126    99      98     1 NA   
 7     7 Cali… 2018… Adda… Publ… Fres… Fresno    124    99      93     0 NA   
 8     8 Cali… 2018… Agua… Publ… Cath… River…    118    99      99     1 NA   
 9     9 Cali… 2018… Akir… Publ… Fres… Fresno    105    99      99     1 NA   
10    10 Cali… 2018… Alam… Publ… Murr… River…    149    99      97     1 NA   
# … with 8,056 more rows, and 3 more variables: xrel <lgl>, lat <chr>,
#   lng <chr>

[[4]]
# A tibble: 1,319 x 15
   index state year  name  type  county district enroll   mmr overall  xmed
   <dbl> <chr> <chr> <chr> <chr> <chr>  <chr>     <dbl> <dbl>   <dbl> <dbl>
 1     1 Colo… 2017… A Ne… Kind… Adams  Harriso…      3   100   100       0
 2     2 Colo… 2017… Abid… Kind… Jeffe… Denver …      4   100   100       0
 3     3 Colo… 2017… Acad… Kind… Dougl… Academy…     66   100    93.9     0
 4     4 Colo… 2017… Adve… Kind… Adams  Colorad…     32   100   100       0
 5     5 Colo… 2017… Agui… Kind… Las A… Greeley…     11   100    81.8     0
 6     6 Colo… 2017… All … Kind… Arapa… Poudre …     34   100    97.1     0
 7     7 Colo… 2017… Alsu… Kind… Adams  Academy…     66   100    97.0     0
 8     8 Colo… 2017… Alta… Kind… Prowe… Jeffers…     20   100    90       0
 9     9 Colo… 2017… Ambl… Kind… Arapa… Adams-A…     16   100    93.8     0
10    10 Colo… 2017… Ames… Kind… Denver Greeley…     63   100   100       0
# … with 1,309 more rows, and 4 more variables: xper <dbl>, xrel <dbl>,
#   lat <dbl>, lng <dbl>

[[5]]
# A tibble: 751 x 12
   index state  year   name     type  city  county   mmr  xmed  xrel   lat   lng
   <dbl> <chr>  <chr>  <chr>    <chr> <chr> <chr>  <dbl> <dbl> <dbl> <dbl> <dbl>
 1     1 Conne… 2017-… A. Ward… Publ… Suff… Hartf…   100     0     0  42.0 -72.7
 2     2 Conne… 2017-… Academy… Publ… Rock… Hartf…   100     0     0  41.6 -72.7
 3     3 Conne… 2017-… Alfred … Publ… Weth… Hartf…   100     0     0  41.7 -72.7
 4     4 Conne… 2017-… Andrew … Publ… Naug… New H…   100     0     0  41.5 -73.1
 5     5 Conne… 2017-… Anna Re… Publ… Newi… Hartf…   100     0     0  41.7 -72.7
 6     6 Conne… 2017-… Augusta… Publ… New … New H…   100     0     0  41.3 -72.9
 7     7 Conne… 2017-… Barlow … Publ… Ridg… Fairf…   100     0     0  41.3 -73.5
 8     8 Conne… 2017-… Beecher  Publ… New … New H…   100     0     0  41.3 -73.0
 9     9 Conne… 2017-… Benjami… Publ… Meri… New H…   100     0     0  41.5 -72.8
10    10 Conne… 2017-… Betance… Publ… Hart… Hartf…   100     0     0  41.8 -72.7
# … with 741 more rows

[[6]]
# A tibble: 2,242 x 13
   index state year  name  district enroll mmr   overall  xmed xper   xrel   lat
   <dbl> <chr> <chr> <chr> <chr>     <dbl> <lgl>   <dbl> <dbl> <lgl> <dbl> <dbl>
 1     1 Flor… 2018… Adva… Hillsbo…     52 NA        100     0 NA        0  28.0
 2     2 Flor… 2018… Apal… Franklin     36 NA        100     0 NA        0  29.7
 3     3 Flor… 2018… Arli… Duval        42 NA        100     0 NA        0  30.3
 4     4 Flor… 2018… Bard… Pinellas     68 NA        100     0 NA        0  27.9
 5     5 Flor… 2018… Bayv… Duval        57 NA        100     0 NA        0  30.3
 6     6 Flor… 2018… Blin… Deaf/Bl…      4 NA        100     0 NA        0  29.9
 7     7 Flor… 2018… Bonn… Orange       90 NA        100     0 NA        0  28.6
 8     8 Flor… 2018… Brad… Manatee      74 NA        100     0 NA        0  27.4
 9     9 Flor… 2018… Brig… Broward       4 NA        100     0 NA        0  26.3
10    10 Flor… 2018… Brow… Broward      53 NA        100     0 NA        0  26.1
# … with 2,232 more rows, and 1 more variable: lng <dbl>

[[7]]
# A tibble: 475 x 13
   index state year  name  city  county district enrollment overall  xmed  xrel
   <dbl> <chr> <chr> <chr> <chr> <chr>  <chr>         <dbl>   <dbl> <dbl> <dbl>
 1     1 Idaho 2018… Amit… Boise Ada    Boise            44     100     0     0
 2     2 Idaho 2018… Beac… Lewi… Nez P… Private           5     100     0     0
 3     3 Idaho 2018… Bois… Boise Ada    Private           3     100     0     0
 4     4 Idaho 2018… Calv… Poca… Banno… Private           7     100     0     0
 5     5 Idaho 2018… Cave… Leno… Nez P… Orofino           3     100     0     0
 6     6 Idaho 2018… Clov… Boise Ada    Private           9     100     0     0
 7     7 Idaho 2018… Coeu… Desm… Benew… Private           6     100     0     0
 8     8 Idaho 2018… Culd… Culd… Nez P… Culdesac          7     100     0     0
 9     9 Idaho 2018… Down… Down… Banno… Marsh V…          9     100     0     0
10    10 Idaho 2018… Eagl… Eagle Ada    Private           7     100     0     0
# … with 465 more rows, and 2 more variables: lat <dbl>, lng <dbl>

[[8]]
# A tibble: 3,574 x 15
   index state year  name  city  county enroll   mmr overall  xmed xper   xrel
   <dbl> <chr> <chr> <chr> <chr> <chr>   <dbl> <dbl> <lgl>   <dbl> <lgl> <dbl>
 1     1 Illi… 2018… 7th … Caho… Saint…    228   100 NA          0 NA        0
 2     2 Illi… 2018… 8th … Caho… Saint…    244   100 NA          0 NA        0
 3     3 Illi… 2018… A Mo… Des … Cook        6   100 NA          0 NA        0
 4     4 Illi… 2018… A Mo… Arli… Cook       21   100 NA          0 NA        0
 5     5 Illi… 2018… A St… Chic… Cook       14   100 NA          0 NA        0
 6     6 Illi… 2018… A St… <NA>  <NA>       20   100 NA          0 NA        0
 7     7 Illi… 2018… A-Ka… Chic… Cook        9   100 NA          0 NA        0
 8     8 Illi… 2018… Abe … Cice… Cook      833   100 NA          0 NA        0
 9     9 Illi… 2018… Acad… Posen Cook        6   100 NA          0 NA        0
10    10 Illi… 2018… Acer… Chic… Cook      261   100 NA          0 NA        0
# … with 3,564 more rows, and 3 more variables: lat <dbl>, lng <dbl>,
#   matcher <chr>

[[9]]
# A tibble: 978 x 9
   index state year    name                  county   enroll overall   lat   lng
   <dbl> <chr> <chr>   <chr>                 <chr>     <dbl>   <dbl> <dbl> <dbl>
 1     1 Iowa  2018-19 Blessed Sacrament     Black H…    100     100  42.5 -92.4
 2     2 Iowa  2018-19 Calmar Festina Spill… Winnesh…    120     100  43.2 -91.9
 3     3 Iowa  2018-19 Central Springs Elem… Worth       105     100  43.3 -93.2
 4     4 Iowa  2018-19 Delhi Elementary      Delaware    174     100  42.4 -91.3
 5     5 Iowa  2018-19 ExiraElk Horn-Kimbal… Shelby      170     100  41.6 -95.1
 6     6 Iowa  2018-19 Fredericksburg Elem   Chickas…    138     100  43.0 -92.2
 7     7 Iowa  2018-19 George Elementary     Lyon        117     100  43.3 -96.0
 8     8 Iowa  2018-19 Glidden-Ralston Elem… Carroll     179     100  42.1 -94.7
 9     9 Iowa  2018-19 Ruthven-Ayrshire Ele… Palo Al…    113     100  43.1 -94.9
10    10 Iowa  2018-19 Salem Elementary      Henry       105     100  40.9 -91.6
# … with 968 more rows

[[10]]
# A tibble: 353 x 12
   index state year   name     county enroll   mmr  xmed  xper  xrel   lat   lng
   <dbl> <chr> <chr>  <chr>    <chr>   <dbl> <dbl> <dbl> <dbl> <dbl> <dbl> <dbl>
 1     1 Maine 2018-… Alexand… Washi…      2   100     0  0        0  44.1 -70.2
 2     2 Maine 2018-… Alton E… Penob…      4   100     0  0        0  44.1 -70.2
 3     3 Maine 2018-… Andover… Oxford      5   100     0  0        0  44.3 -70.1
 4     4 Maine 2018-… Appleto… Knox       17   100     0  0        0  44.3 -69.3
 5     5 Maine 2018-… Atwood … Kenne…     69   100     0  0        0  44.1 -70.4
 6     6 Maine 2018-… Beals E… Washi…      6   100     0  0        0  44.1 -70.2
 7     7 Maine 2018-… Belgrad… Kenne…     39   100     0  0        0  44.1 -70.2
 8     8 Maine 2018-… Brixham… York        9   100     0 11.1      0  46.6 -67.9
 9     9 Maine 2018-… Calais … Washi…     39   100     0  0        0  46.1 -67.9
10    10 Maine 2018-… Canaan … Somer…     29   100     0  3.45     0  47.2 -67.9
# … with 343 more rows

[[11]]
# A tibble: 1,374 x 11
   index state    year   name       type  city    county   mmr  xmed   lat   lng
   <dbl> <chr>    <chr>  <chr>      <chr> <chr>   <chr>  <dbl> <dbl> <dbl> <dbl>
 1     1 Massach… 2018-… A Drewicz… Publ… Lynn    Essex    100   0    42.5 -71.0
 2     2 Massach… 2018-… Abraham L… Publ… New Be… Brist…   100   0    41.7 -70.9
 3     3 Massach… 2018-… Alfred J … Publ… New Be… Brist…   100   0    41.6 -70.9
 4     4 Massach… 2018-… Alice Bea… Publ… Spring… Hampd…   100   0    42.1 -72.5
 5     5 Massach… 2018-… Allendale… Publ… Pittsf… Berks…   100   0    42.5 -73.2
 6     6 Massach… 2018-… Alma Del … Publ… New Be… Brist…   100   0    41.7 -70.9
 7     7 Massach… 2018-… Amesbury … Publ… Amesbu… Essex    100   0    42.9 -70.9
 8     8 Massach… 2018-… Amvet Blvd Publ… North … Brist…   100   0    42.0 -71.3
 9     9 Massach… 2018-… Anna E Ba… Publ… Chicop… Hampd…   100   0    42.2 -72.6
10    10 Massach… 2018-… Annie E F… Publ… Westbo… Worce…   100   1.1  42.3 -71.6
# … with 1,364 more rows

[[12]]
# A tibble: 1,899 x 14
   index state year  name  county district enroll mmr   overall  xmed xper 
   <dbl> <chr> <chr> <chr> <chr>  <chr>     <dbl> <lgl>   <dbl> <dbl> <lgl>
 1     1 Mich… 2018… Acad… Oakla… Bloomfi…     12 NA        100     0 NA   
 2     2 Mich… 2018… Adam… Kent   Grandvi…     32 NA        100     0 NA   
 3     3 Mich… 2018… AGBU… Oakla… AGBU Al…     27 NA        100     0 NA   
 4     4 Mich… 2018… Anch… Kent   Godwin …     10 NA        100     0 NA   
 5     5 Mich… 2018… Angu… Macomb Warren …     65 NA        100     0 NA   
 6     6 Mich… 2018… Ann … Detro… Detroit…     24 NA        100     0 NA   
 7     7 Mich… 2018… Arbo… Calho… Arbor A…     41 NA        100     0 NA   
 8     8 Mich… 2018… ASA … Detro… Detroit…     12 NA        100     0 NA   
 9     9 Mich… 2018… Aubu… Bay    Bay Cit…     17 NA        100     0 NA   
10    10 Mich… 2018… Augu… Kalam… Augusta…     12 NA        100     0 NA   
# … with 1,889 more rows, and 3 more variables: xrel <lgl>, lat <dbl>,
#   lng <dbl>

[[13]]
# A tibble: 1,289 x 13
   index state year  name  county enroll   mmr overall  xmed  xper xrel  lat  
   <dbl> <chr> <chr> <chr> <chr>   <dbl> <dbl> <lgl>   <dbl> <dbl> <lgl> <chr>
 1     1 Minn… 2017… Appl… Lac q…     41   100 NA          0     0 NA    45.1…
 2     2 Minn… 2017… Argy… Marsh…     24   100 NA          0     0 NA    48.3…
 3     3 Minn… 2017… Ashb… Grant      23   100 NA          0     0 NA    46.0…
 4     4 Minn… 2017… Ava … Henne…     17   100 NA          0     0 NA    45.0…
 5     5 Minn… 2017… Bana… Henne…     11   100 NA          0     0 NA    44.9…
 6     6 Minn… 2017… Bert… Todd       38   100 NA          0     0 NA    46.2…
 7     7 Minn… 2017… Beth… Henne…     10   100 NA          0     0 NA    44.8…
 8     8 Minn… 2017… Blak… Henne…     34   100 NA          0     0 NA    44.9…
 9     9 Minn… 2017… Broo… Washi…     91   100 NA          0     0 NA    44.9…
10    10 Minn… 2017… Brow… Todd       40   100 NA          0     0 NA    46.0…
# … with 1,279 more rows, and 1 more variable: lng <dbl>

[[14]]
# A tibble: 484 x 12
   index state  year   name    city    mmr overall xmed  xper  xrel    lat   lng
   <dbl> <chr>  <chr>  <chr>   <chr> <dbl> <lgl>   <lgl> <lgl> <lgl> <dbl> <dbl>
 1     1 Misso… 2018-… Agape … Stoc…    99 NA      NA    NA    NA     37.7 -93.8
 2     2 Misso… 2018-… All Sa… Flor…    99 NA      NA    NA    NA     38.8 -90.4
 3     3 Misso… 2018-… All Sa… Flor…    99 NA      NA    NA    NA     38.8 -90.3
 4     4 Misso… 2018-… All Sa… Flor…    99 NA      NA    NA    NA     38.8 -90.3
 5     5 Misso… 2018-… All Sa… St P…    99 NA      NA    NA    NA     38.8 -90.6
 6     6 Misso… 2018-… Assump… St. …    99 NA      NA    NA    NA     38.5 -90.4
 7     7 Misso… 2018-… Atonem… Flor…    99 NA      NA    NA    NA     38.8 -90.3
 8     8 Misso… 2018-… Blesse… Ferg…    99 NA      NA    NA    NA     38.7 -90.3
 9     9 Misso… 2018-… Centra… Clay…    99 NA      NA    NA    NA     38.6 -90.3
10    10 Misso… 2018-… Chamin… St. …    99 NA      NA    NA    NA     38.6 -90.4
# … with 474 more rows

[[15]]
# A tibble: 567 x 10
   index state  year   name            county   enroll   mmr  xmed lat       lng
   <dbl> <chr>  <chr>  <chr>           <chr>     <dbl> <dbl> <dbl> <chr>   <dbl>
 1     1 Monta… 2017-… Acadia Montana  Silver …     64   100     0 46.013… -113.
 2     2 Monta… 2017-… Anna Jeffries … Glacier     105   100     0 48.640… -112.
 3     3 Monta… 2017-… Ashland         Rosebud      75   100     0 45.594… -106.
 4     4 Monta… 2017-… Atonement Luth… Yellows…     26   100     0 45.815… -108.
 5     5 Monta… 2017-… Big Stone       Cascade      38   100     0 47.400… -111.
 6     6 Monta… 2017-… Blackfeet Earl… Glacier      76   100     0 48.637… -112.
 7     7 Monta… 2017-… Child Start He… Missoula    318   100     0 46.771… -114.
 8     8 Monta… 2017-… Crow Agency     Big Horn    315   100     0 45.605… -107.
 9     9 Monta… 2017-… Dodson Schools… Phillips     82   100     0 48.350… -108.
10    10 Monta… 2017-… Eastern Montan… Dawson       40   100     0 47.100… -105.
# … with 557 more rows

[[16]]
# A tibble: 2,149 x 11
   index name         state  county enroll overall  xmed  xrel xper    lat   lng
   <dbl> <chr>        <chr>  <chr>   <dbl>   <dbl> <dbl> <dbl> <lgl> <dbl> <dbl>
 1     1 A. Harry Mo… New J… Hudson     13     100    NA    NA NA     40.7 -74.1
 2     2 A. Russell … New J… Union      63     100    NA    NA NA     39.9 -75.0
 3     3 A.V. Ceres … New J… Middl…    139     100    NA    NA NA     40.5 -74.3
 4     4 Aaron Decker New J… Morris     81     100    NA    NA NA     41.0 -74.4
 5     5 Abington Av… New J… Essex      87     100    NA    NA NA     40.8 -74.2
 6     6 Abraham Lin… New J… Bergen     41     100    NA    NA NA     41.0 -74.2
 7     7 Abraham Lin… New J… Bergen     71     100    NA    NA NA     40.9 -74.1
 8     8 Academy at … New J… Bergen      9     100    NA    NA NA     40.8 -74.1
 9     9 Academy of … New J… Bergen     43     100    NA    NA NA     40.8 -74.0
10    10 Academy Of … New J… Bergen     25     100    NA    NA NA     40.9 -74.0
# … with 2,139 more rows

[[17]]
# A tibble: 3,645 x 15
   index state year  name  type  city  county enroll   mmr overal  xmed xper 
   <dbl> <chr> <chr> <chr> <chr> <chr> <chr>  <lgl>  <dbl>  <dbl> <dbl> <lgl>
 1     1 New … 2017… A Ch… Priv… East… Queens NA       100  100    0    NA   
 2     2 New … 2017… A Fa… Priv… Broo… Kings  NA       100   98.8  1.18 NA   
 3     3 New … 2017… Aabr… Priv… Coll… Queens NA       100  100    0    NA   
 4     4 New … 2017… Abra… Publ… Glen… Warren NA       100  100    0    NA   
 5     5 New … 2017… Abun… Priv… King… Ulster NA       100   75    0    NA   
 6     6 New … 2017… Acad… Priv… Bronx Bronx  NA       100  100    0    NA   
 7     7 New … 2017… Acad… Priv… Alba… Albany NA       100   98.3  0    NA   
 8     8 New … 2017… Adel… Priv… Broo… Kings  NA       100  100    0    NA   
 9     9 New … 2017… Adir… Priv… Wilm… Clint… NA       100  100    0    NA   
10    10 New … 2017… Ahi … Priv… Broo… Kings  NA       100  100    0    NA   
# … with 3,635 more rows, and 3 more variables: xrel <dbl>, lat <dbl>,
#   lng <dbl>
…
