Cool with statistical independence
…
```r
*library(tidyverse)
*set.seed(98735)
*tibble(tail_length = rnorm(n = 50),
*      brain_weight = rnorm(n = 50)) ->
*my_data; my_data
```
]]
.column[.content[

```
## # A tibble: 50 x 2
##    tail_length brain_weight
##          <dbl>        <dbl>
##  1      -1.64       -0.530 
##  2      -0.107      -0.744 
##  3       0.185       0.476 
##  4       1.36        1.32  
##  5       0.210      -0.0852
##  6      -0.658      -1.36  
##  7       1.53       -1.18  
##  8       1.40       -0.867 
##  9       1.54        0.115 
## 10       0.131       0.960 
## # … with 40 more rows
```
…
```
## # A tibble: 50 x 2
##    tail_length brain_weight
##          <dbl>        <dbl>
##  1      -1.64       -0.530 
##  2      -0.107      -0.744 
##  3       0.185       0.476 
##  4       1.36        1.32  
##  5       0.210      -0.0852
##  6      -0.658      -1.36  
##  7       1.53       -1.18  
##  8       1.40       -0.867 
##  9       1.54        0.115 
## 10       0.131       0.960 
## # … with 40 more rows
```
…
```
## # A tibble: 50 x 2
##    tail_length brain_weight
##          <dbl>        <dbl>
##  1      -1.64       -0.530 
##  2      -0.107      -0.744 
##  3       0.185       0.476 
##  4       1.36        1.32  
##  5       0.210      -0.0852
##  6      -0.658      -1.36  
##  7       1.53       -1.18  
##  8       1.40       -0.867 
##  9       1.54        0.115 
## 10       0.131       0.960 
## # … with 40 more rows
```
…
cor.test(x = my_data$tail_length, 
              y = my_data$brain_weight)
```
]]
.column[.content[

```
    # A tibble: 50 x 2
       tail_length brain_weight
             <dbl>        <dbl>
     1       1.24       -0.451 
     2       0.544       0.243 
     3      -0.487       0.395 
     4      -1.09        0.492 
     5       0.468       0.0326
     6      -1.29        0.848 
     7       1.72        0.391 
     8      -0.435      -0.231 
     9       1.06       -1.67  
    10      -0.575      -0.403 
    # … with 40 more rows
```
…
cor.test(x = my_data$tail_length, 
              y = my_data$brain_weight)
```
]]
.column[.content[

```
    # A tibble: 50 x 2
       tail_length brain_weight
             <dbl>        <dbl>
     1      0.850       -0.454 
     2     -0.148        1.04  
     3     -1.66         0.0499
     4      1.46        -0.212 
     5      0.924        0.0783
     6      1.07         0.438 
     7      0.893       -2.44  
     8     -0.0985      -0.745 
     9      1.77         0.405 
    10     -0.714        0.239 
    # … with 40 more rows
```
…
cor.test(x = my_data$tail_length, 
              y = my_data$brain_weight)
```
]]
.column[.content[

```
    # A tibble: 50 x 2
       tail_length brain_weight
             <dbl>        <dbl>
     1      -0.514       -1.06 
     2       0.475        1.96 
     3      -1.29        -0.320
     4       0.804       -0.772
     5       0.879       -1.60 
     6      -0.561        0.918
     7      -0.639       -1.64 
     8       1.36        -0.654
     9      -0.705        1.58 
    10      -1.65        -0.587
    # … with 40 more rows
```
…
cor.test(x = my_data$tail_length, 
              y = my_data$brain_weight)
```
]]
.column[.content[

```
    # A tibble: 50 x 2
       tail_length brain_weight
             <dbl>        <dbl>
     1      -0.779        0.411
     2      -0.934       -0.952
     3      -0.866       -0.659
     4      -0.703        0.547
     5       0.526        0.688
     6      -0.900        0.636
     7       0.763       -1.25 
     8      -0.956        0.775
     9      -1.36         1.44 
    10       0.672       -0.423
    # … with 40 more rows
```
…
cor.test(x = my_data$tail_length, 
              y = my_data$brain_weight)
```
]]
.column[.content[

```
    # A tibble: 50 x 2
       tail_length brain_weight
             <dbl>        <dbl>
     1     -0.386        1.06  
     2     -0.477        0.516 
     3      0.463       -1.14  
     4      1.02        -0.414 
     5     -0.169        1.55  
     6     -1.31         0.0368
     7      0.356        1.18  
     8      1.12         1.37  
     9      0.291       -0.750 
    10      0.0537       0.855 
    # … with 40 more rows
```
…
cor.test(x = my_data$tail_length, 
              y = my_data$brain_weight)
```
]]
.column[.content[

```
    # A tibble: 50 x 2
       tail_length brain_weight
             <dbl>        <dbl>
     1       1.42         0.359
     2       0.252       -1.52 
     3       0.186        0.919
     4       2.63        -0.232
     5       0.217       -0.456
     6      -0.993        1.02 
     7       0.510        0.614
     8      -1.06        -0.252
     9      -0.199        0.264
    10      -0.209        0.667
    # … with 40 more rows
```
…
cor.test(x = my_data$tail_length, 
              y = my_data$brain_weight)
```
]]
.column[.content[

```
    # A tibble: 50 x 2
       tail_length brain_weight
             <dbl>        <dbl>
     1      0.0673       3.20  
     2      0.898        0.373 
     3      0.582        0.117 
     4     -0.0626       0.216 
     5     -0.512        0.969 
     6     -1.89         0.0187
     7     -1.13         0.0565
     8      1.88         0.200 
     9     -0.964       -0.572 
    10      0.615       -1.22  
    # … with 40 more rows
```
…
cor.test(x = my_data$tail_length, 
              y = my_data$brain_weight)
```
]]
.column[.content[

```
    # A tibble: 50 x 2
       tail_length brain_weight
             <dbl>        <dbl>
     1       1.33        -1.11 
     2       0.864        0.515
     3       0.140        2.83 
     4       1.07         0.101
     5      -1.17         0.117
     6       1.16         0.868
     7      -1.91        -0.961
     8      -1.33         1.73 
     9       1.32        -0.205
    10      -0.543       -0.545
    # … with 40 more rows
```
…
cor.test(x = my_data$tail_length, 
              y = my_data$brain_weight)
```
]]
.column[.content[

```
    # A tibble: 50 x 2
       tail_length brain_weight
             <dbl>        <dbl>
     1       0.645        1.07 
     2       0.346        0.741
     3      -1.57        -0.353
     4      -0.212       -1.80 
     5       0.790        0.706
     6       0.969       -0.102
     7       2.10         0.866
     8       0.955        0.562
     9       0.818       -0.651
    10      -0.662        0.314
    # … with 40 more rows
```
…
cor.test(x = my_data$tail_length, 
              y = my_data$brain_weight)
```
]]
.column[.content[

```
    # A tibble: 50 x 2
       tail_length brain_weight
             <dbl>        <dbl>
     1     -0.304        -0.485
     2      0.426        -0.714
     3     -0.0802       -0.658
     4     -0.924        -0.792
     5      2.26         -1.23 
     6      0.451        -0.573
     7      0.610        -1.18 
     8      0.311        -0.867
     9      1.03          1.74 
    10      1.21         -0.127
    # … with 40 more rows
```
…
t.test(height_data$height ~ # the continuous variable by (~)
         height_data$sex) # the discrete variable
```
]]
.column[.content[

```
    # A tibble: 50 x 2
       sex    height
       <chr>   <dbl>
     1 female   5.42
     2 female   6.02
     3 male     5.35
     4 female   5.00
     5 male     4.89
     6 female   4.94
     7 female   5.55
     8 female   5.12
     9 female   6.15
    10 male     4.94
    # … with 40 more rows
```
…
t.test(height_data$height ~ # the continuous variable by (~)
         height_data$sex) # the discrete variable
```
]]
.column[.content[

```
    # A tibble: 50 x 2
       sex    height
       <chr>   <dbl>
     1 female   5.77
     2 male     5.76
     3 female   5.48
     4 male     4.72
     5 male     5.98
     6 female   4.65
     7 female   3.88
     8 female   5.20
     9 female   5.04
    10 male     5.93
    # … with 40 more rows
```
…
t.test(height_data$height ~ # the continuous variable by (~)
         height_data$sex) # the discrete variable
```
]]
.column[.content[

```
    # A tibble: 50 x 2
       sex    height
       <chr>   <dbl>
     1 female   6.21
     2 female   5.18
     3 female   5.71
     4 female   5.59
     5 female   5.02
     6 female   5.80
     7 male     4.82
     8 female   6.04
     9 female   5.45
    10 female   5.61
    # … with 40 more rows
```
…
t.test(height_data$height ~ # the continuous variable by (~)
         height_data$sex) # the discrete variable
```
]]
.column[.content[

```
    # A tibble: 50 x 2
       sex    height
       <chr>   <dbl>
     1 female   4.96
     2 male     5.47
     3 male     5.25
     4 female   4.99
     5 female   5.61
     6 female   5.69
     7 female   5.84
     8 male     5.36
     9 female   5.30
    10 female   5.18
    # … with 40 more rows
```
…
t.test(height_data$height ~ # the continuous variable by (~)
         height_data$sex) # the discrete variable
```
]]
.column[.content[

```
    # A tibble: 50 x 2
       sex    height
       <chr>   <dbl>
     1 male     5.23
     2 female   5.70
     3 male     5.94
     4 male     5.09
     5 female   5.87
     6 male     5.17
     7 female   5.68
     8 male     6.01
     9 female   5.38
    10 male     6.18
    # … with 40 more rows
```
…
t.test(height_data$height ~ # the continuous variable by (~)
         height_data$sex) # the discrete variable
```
]]
.column[.content[

```
    # A tibble: 50 x 2
       sex    height
       <chr>   <dbl>
     1 male     6.14
     2 female   4.77
     3 female   5.97
     4 male     5.88
     5 male     5.28
     6 male     6.31
     7 male     6.05
     8 female   4.81
     9 female   4.91
    10 male     5.97
    # … with 40 more rows
```
…
t.test(height_data$height ~ # the continuous variable by (~)
         height_data$sex) # the discrete variable
```
]]
.column[.content[

```
    # A tibble: 50 x 2
       sex    height
       <chr>   <dbl>
     1 female   5.51
     2 male     5.28
     3 male     6.39
     4 male     5.95
     5 female   5.77
     6 male     4.94
     7 male     5.11
     8 male     5.91
     9 male     6.11
    10 female   5.24
    # … with 40 more rows
```
…
t.test(height_data$height ~ # the continuous variable by (~)
         height_data$sex) # the discrete variable
```
]]
.column[.content[

```
    # A tibble: 50 x 2
       sex    height
       <chr>   <dbl>
     1 male     5.09
     2 male     5.26
     3 male     5.53
     4 female   4.96
     5 female   5.00
     6 male     5.16
     7 female   5.68
     8 female   5.15
     9 female   5.67
    10 male     5.46
    # … with 40 more rows
```
…
t.test(height_data$height ~ # the continuous variable by (~)
         height_data$sex) # the discrete variable
```
]]
.column[.content[

```
    # A tibble: 50 x 2
       sex    height
       <chr>   <dbl>
     1 male     5.95
     2 male     5.36
     3 female   6.49
     4 male     5.72
     5 male     5.77
     6 female   5.66
     7 male     5.17
     8 female   5.85
     9 female   5.27
    10 male     5.53
    # … with 40 more rows
```
…
t.test(height_data$height ~ # the continuous variable by (~)
         height_data$sex) # the discrete variable
```
]]
.column[.content[

```
    # A tibble: 50 x 2
       sex    height
       <chr>   <dbl>
     1 female   4.88
     2 male     5.75
     3 male     5.69
     4 male     5.62
     5 male     6.47
     6 male     5.74
     7 male     4.29
     8 female   5.26
     9 male     5.27
    10 male     4.66
    # … with 40 more rows
```
…
TukeyHSD(aov(height_data$height ~ # the continuous variable by (~)
         height_data$sex)) # the discrete variable
```
]]
.column[.content[

```
    # A tibble: 50 x 2
       sex    height
       <chr>   <dbl>
     1 Crew   0.643 
     2 2nd    0.0428
     3 Crew  -1.36  
     4 2nd    0.0554
     5 Crew  -0.0980
     6 3rd    1.38  
     7 Crew   0.204 
     8 3rd   -0.364 
     9 Crew   1.17  
    10 3rd    0.658 
    # … with 40 more rows
```
…
TukeyHSD(aov(height_data$height ~ # the continuous variable by (~)
         height_data$sex)) # the discrete variable
```
]]
.column[.content[

```
    # A tibble: 50 x 2
       sex    height
       <chr>   <dbl>
     1 Crew  -0.609 
     2 1st    2.85  
     3 1st   -0.323 
     4 1st   -2.37  
     5 Crew   0.786 
     6 1st    0.0970
     7 1st    0.328 
     8 3rd    0.660 
     9 1st    0.0372
    10 Crew   1.44  
    # … with 40 more rows
```
…
TukeyHSD(aov(height_data$height ~ # the continuous variable by (~)
         height_data$sex)) # the discrete variable
```
]]
.column[.content[

```
    # A tibble: 50 x 2
       sex   height
       <chr>  <dbl>
     1 Crew  -0.483
     2 Crew   1.13 
     3 1st    0.721
     4 1st    1.51 
     5 1st   -0.698
     6 2nd   -0.813
     7 2nd    0.564
     8 3rd   -0.240
     9 3rd   -0.724
    10 3rd    0.962
    # … with 40 more rows
```
…
TukeyHSD(aov(height_data$height ~ # the continuous variable by (~)
         height_data$sex)) # the discrete variable
```
]]
.column[.content[

```
    # A tibble: 50 x 2
       sex    height
       <chr>   <dbl>
     1 2nd   -0.357 
     2 1st   -0.324 
     3 1st    0.0804
     4 1st    0.682 
     5 2nd   -0.370 
     6 Crew  -1.30  
     7 1st   -1.71  
     8 1st    0.470 
     9 Crew   0.480 
    10 2nd    1.50  
    # … with 40 more rows
```
…
TukeyHSD(aov(height_data$height ~ # the continuous variable by (~)
         height_data$sex)) # the discrete variable
```
]]
.column[.content[

```
    # A tibble: 50 x 2
       sex     height
       <chr>    <dbl>
     1 1st    0.830  
     2 2nd   -0.760  
     3 2nd    1.55   
     4 Crew   0.0219 
     5 3rd   -0.00863
     6 1st    0.825  
     7 1st   -0.520  
     8 3rd   -0.830  
     9 2nd   -0.192  
    10 Crew  -0.633  
    # … with 40 more rows
```
…
TukeyHSD(aov(height_data$height ~ # the continuous variable by (~)
         height_data$sex)) # the discrete variable
```
]]
.column[.content[

```
    # A tibble: 50 x 2
       sex   height
       <chr>  <dbl>
     1 1st    0.739
     2 Crew   1.61 
     3 2nd    0.221
     4 1st   -0.815
     5 Crew  -0.116
     6 3rd    1.01 
     7 1st    0.883
     8 1st   -0.869
     9 3rd    0.885
    10 3rd   -1.35 
    # … with 40 more rows
```
…
TukeyHSD(aov(height_data$height ~ # the continuous variable by (~)
         height_data$sex)) # the discrete variable
```
]]
.column[.content[

```
    # A tibble: 50 x 2
       sex   height
       <chr>  <dbl>
     1 2nd   -0.643
     2 3rd   -1.08 
     3 Crew  -0.521
     4 2nd   -2.01 
     5 Crew  -0.598
     6 Crew  -0.357
     7 Crew   1.18 
     8 1st    0.448
     9 3rd    0.341
    10 2nd   -1.21 
    # … with 40 more rows
```
…
TukeyHSD(aov(height_data$height ~ # the continuous variable by (~)
         height_data$sex)) # the discrete variable
```
]]
.column[.content[

```
    # A tibble: 50 x 2
       sex   height
       <chr>  <dbl>
     1 2nd    1.05 
     2 2nd    1.31 
     3 2nd   -0.149
     4 2nd   -0.258
     5 3rd   -1.02 
     6 2nd    0.493
     7 1st    0.876
     8 3rd   -2.07 
     9 2nd   -0.152
    10 2nd    1.98 
    # … with 40 more rows
```
…
TukeyHSD(aov(height_data$height ~ # the continuous variable by (~)
         height_data$sex)) # the discrete variable
```
]]
.column[.content[

```
    # A tibble: 50 x 2
       sex   height
       <chr>  <dbl>
     1 3rd   -1.38 
     2 Crew  -0.132
     3 Crew  -0.583
     4 3rd    0.797
     5 1st   -0.276
     6 Crew  -0.374
     7 1st   -0.238
     8 2nd   -1.14 
     9 3rd    1.46 
    10 1st   -1.01 
    # … with 40 more rows
```
…
TukeyHSD(aov(height_data$height ~ # the continuous variable by (~)
         height_data$sex)) # the discrete variable
```
]]
.column[.content[

```
    # A tibble: 50 x 2
       sex    height
       <chr>   <dbl>
     1 3rd    0.867 
     2 1st   -0.887 
     3 3rd    1.47  
     4 3rd    2.24  
     5 2nd   -0.0710
     6 2nd    0.482 
     7 1st   -0.637 
     8 1st   -1.08  
     9 Crew  -0.167 
    10 2nd   -0.0793
    # … with 40 more rows
```
…
library(ggmosaic) # geom_mosaic() and product()
ggplot(data = my_data) +
  geom_mosaic(aes(x = product(sex),
                  fill = handed))

table(x = my_data$sex, y = my_data$handed)

chisq.test(x = my_data$sex, 
           y = my_data$handed) 
```
]]
.column[.content[

```
    # A tibble: 100 x 2
       sex    handed
       <chr>  <chr> 
     1 male   right 
     2 female right 
     3 male   right 
     4 female right 
     5 male   right 
     6 female right 
     7 male   left  
     8 female left  
     9 female right 
    10 male   right 
    # … with 90 more rows
```
…
library(ggmosaic) # geom_mosaic() and product()
ggplot(data = my_data) +
  geom_mosaic(aes(x = product(sex),
                  fill = handed))

table(x = my_data$sex, y = my_data$handed)

chisq.test(x = my_data$sex, 
           y = my_data$handed) 
```
]]
.column[.content[

```
    # A tibble: 100 x 2
       sex    handed
       <chr>  <chr> 
     1 female left  
     2 male   right 
     3 female right 
     4 female right 
     5 female left  
     6 female right 
     7 female right 
     8 female right 
     9 male   right 
    10 female right 
    # … with 90 more rows
```
…
library(ggmosaic) # geom_mosaic() and product()
ggplot(data = my_data) +
  geom_mosaic(aes(x = product(sex),
                  fill = handed))

table(x = my_data$sex, y = my_data$handed)

chisq.test(x = my_data$sex, 
           y = my_data$handed) 
```
]]
.column[.content[

```
    # A tibble: 100 x 2
       sex    handed
       <chr>  <chr> 
     1 female right 
     2 female right 
     3 female left  
     4 female right 
     5 male   right 
     6 female left  
     7 male   right 
     8 male   right 
     9 female right 
    10 female right 
    # … with 90 more rows
```
…
library(ggmosaic) # geom_mosaic() and product()
ggplot(data = my_data) +
  geom_mosaic(aes(x = product(sex),
                  fill = handed))

table(x = my_data$sex, y = my_data$handed)

chisq.test(x = my_data$sex, 
           y = my_data$handed) 
```
]]
.column[.content[

```
    # A tibble: 100 x 2
       sex    handed
       <chr>  <chr> 
     1 male   right 
     2 male   left  
     3 male   right 
     4 female right 
     5 female right 
     6 female right 
     7 female right 
     8 female right 
     9 male   left  
    10 female right 
    # … with 90 more rows
```
…
library(ggmosaic) # geom_mosaic() and product()
ggplot(data = my_data) +
  geom_mosaic(aes(x = product(sex),
                  fill = handed))

table(x = my_data$sex, y = my_data$handed)

chisq.test(x = my_data$sex, 
           y = my_data$handed) 
```
]]
.column[.content[

```
    # A tibble: 100 x 2
       sex    handed
       <chr>  <chr> 
     1 male   left  
     2 female right 
     3 female right 
     4 male   right 
     5 male   left  
     6 female left  
     7 female left  
     8 female right 
     9 male   right 
    10 female right 
    # … with 90 more rows
```
…
library(ggmosaic) # geom_mosaic() and product()
ggplot(data = my_data) +
  geom_mosaic(aes(x = product(sex),
                  fill = handed))

table(x = my_data$sex, y = my_data$handed)

chisq.test(x = my_data$sex, 
           y = my_data$handed) 
```
]]
.column[.content[

```
    # A tibble: 100 x 2
       sex    handed
       <chr>  <chr> 
     1 female left  
     2 female right 
     3 female right 
     4 male   right 
     5 male   right 
     6 female right 
     7 male   right 
     8 female right 
     9 female right 
    10 female left  
    # … with 90 more rows
```
…
library(ggmosaic) # geom_mosaic() and product()
ggplot(data = my_data) +
  geom_mosaic(aes(x = product(sex),
                  fill = handed))

table(x = my_data$sex, y = my_data$handed)

chisq.test(x = my_data$sex, 
           y = my_data$handed) 
```
]]
.column[.content[

```
    # A tibble: 100 x 2
       sex    handed
       <chr>  <chr> 
     1 male   right 
     2 male   right 
     3 female right 
     4 female left  
     5 male   right 
     6 male   left  
     7 male   right 
     8 male   right 
     9 male   right 
    10 female right 
    # … with 90 more rows
```
…
