Mapping Data in R with geom_sf()
…
wetherspoon_raw %>%
  janitor::clean_names() %>% 
  select(1:5)  ->
wetherspoon

wetherspoon
```

```
# A tibble: 213 x 5
   name                location            latitude longitude empire_state_burg…
   <chr>               <chr>                  <dbl>     <dbl>              <dbl>
 1 The Moon Under Wat… Leicester Square, …     51.5   -0.129               11.2 
 2 The Lord Moon of t… Whitehall, London       51.5   -0.127               11.0 
 3 Pendrel's Oak       Holborn, London         51.5   -0.115               11.0 
 4 The Cross Keyes     City of London, Lo…     51.5   -0.0847              11.0 
 5 The Mardi Gras      Manchester              53.5   -2.35                13.6 
 6 The King and Castle Windsor                 51.5   -0.609               10.6 
 7 The Hope & Champion Beaconsfield Servi…     51.6   -0.627                9.75
 8 Goodman's Field     Tower Hamlets, Lon…     51.5   -0.0728              11.0 
 9 Castle In the Air   Manchester              53.5   -2.36                11.5 
10 The Ice Wharf       Camden, London          51.5   -0.145               11.2 
# … with 203 more rows
```
…
The second example will also draw its shapefiles from the rnaturalearth package. We will also use a dataset containing the defense expenditure of NATO member states. 

We will make a colored map that allows for easy visual comparison of spending levels. This type is called a choropleth map.

---

```r
library(readxl)
nato_expenditure <- read_excel("nato_expenditure.xlsx")

nato_expenditure
```

```
# A tibble: 29 x 2
   name           spendingPercap
   <chr>                   <dbl>
 1 Albania                  1.26
 2 Belgium                  0.93
 3 Bulgaria                 1.61
 4 Canada                   1.27
 5 Croatia                  1.75
 6 Czech Republic           1.19
 7 Denmark                  1.35
 8 Estonia                  2.13
 9 France                   1.84
10 Germany                  1.36
# … with 19 more rows
```
…
