The art of flipbooking
…
---

class: split-40
count: false

.column[.content[

```r
*gapminder::gapminder
```
]]
.column[.content[

```
# A tibble: 1,704 x 6
   country     continent  year lifeExp      pop gdpPercap
   <fct>       <fct>     <int>   <dbl>    <int>     <dbl>
 1 Afghanistan Asia       1952    28.8  8425333      779.
 2 Afghanistan Asia       1957    30.3  9240934      821.
 3 Afghanistan Asia       1962    32.0 10267083      853.
 4 Afghanistan Asia       1967    34.0 11537966      836.
 5 Afghanistan Asia       1972    36.1 13079460      740.
 6 Afghanistan Asia       1977    38.4 14880372      786.
 7 Afghanistan Asia       1982    39.9 12881816      978.
 8 Afghanistan Asia       1987    40.8 13867957      852.
 9 Afghanistan Asia       1992    41.7 16317921      649.
10 Afghanistan Asia       1997    41.8 22227415      635.
# … with 1,694 more rows
```
…
.column[.content[

```r
gapminder::gapminder %>%  
* filter(year == 2002)
```
]]
.column[.content[

```
# A tibble: 142 x 6
   country     continent  year lifeExp       pop gdpPercap
   <fct>       <fct>     <int>   <dbl>     <int>     <dbl>
 1 Afghanistan Asia       2002    42.1  25268405      727.
 2 Albania     Europe     2002    75.7   3508512     4604.
 3 Algeria     Africa     2002    71.0  31287142     5288.
 4 Angola      Africa     2002    41.0  10866106     2773.
 5 Argentina   Americas   2002    74.3  38331121     8798.
 6 Australia   Oceania    2002    80.4  19546792    30688.
 7 Austria     Europe     2002    79.0   8148312    32418.
 8 Bahrain     Asia       2002    74.8    656397    23404.
 9 Bangladesh  Asia       2002    62.0 135656790     1136.
10 Belgium     Europe     2002    78.3  10311970    30486.
# … with 132 more rows
```
…
---

class: split-40
count: false

.column[.content[

```r
*mpg
```
]]
.column[.content[

```
# A tibble: 234 x 11
   manufacturer model    displ  year   cyl trans   drv     cty   hwy fl    class
   <chr>        <chr>    <dbl> <int> <int> <chr>   <chr> <int> <int> <chr> <chr>
 1 audi         a4         1.8  1999     4 auto(l… f        18    29 p     comp…
 2 audi         a4         1.8  1999     4 manual… f        21    29 p     comp…
 3 audi         a4         2    2008     4 manual… f        20    31 p     comp…
 4 audi         a4         2    2008     4 auto(a… f        21    30 p     comp…
 5 audi         a4         2.8  1999     6 auto(l… f        16    26 p     comp…
 6 audi         a4         2.8  1999     6 manual… f        18    26 p     comp…
 7 audi         a4         3.1  2008     6 auto(a… f        18    27 p     comp…
 8 audi         a4 quat…   1.8  1999     4 manual… 4        18    26 p     comp…
 9 audi         a4 quat…   1.8  1999     4 auto(l… 4        16    25 p     comp…
10 audi         a4 quat…   2    2008     4 manual… 4        20    28 p     comp…
# … with 224 more rows
```
…
