A collection of COVID-19 Data Visualization
…
.column[.content[

```r
library(tidyverse)  

*read_csv("time_series_19-covid-Confirmed-2020-03-19.csv")
```
]]
.column[.content[

```
# A tibble: 483 x 62
   `Province/State` `Country/Region`    Lat   Long `1/22/20` `1/23/20` `1/24/20`
   <chr>            <chr>             <dbl>  <dbl>     <dbl>     <dbl>     <dbl>
 1 <NA>             Thailand          15     101           2         3         5
 2 <NA>             Japan             36     138           2         1         2
 3 <NA>             Singapore          1.28  104.          0         1         3
 4 <NA>             Nepal             28.2    84.2         0         0         0
 5 <NA>             Malaysia           2.5   112.          0         0         0
 6 British Columbia Canada            49.3  -123.          0         0         0
 7 New South Wales  Australia        -33.9   151.          0         0         0
 8 Victoria         Australia        -37.8   145.          0         0         0
 9 Queensland       Australia        -28.0   153.          0         0         0
10 <NA>             Cambodia          11.6   105.          0         0         0
# … with 473 more rows, and 55 more variables: `1/25/20` <dbl>,
#   `1/26/20` <dbl>, `1/27/20` <dbl>, `1/28/20` <dbl>, `1/29/20` <dbl>,
#   `1/30/20` <dbl>, `1/31/20` <dbl>, `2/1/20` <dbl>, `2/2/20` <dbl>,
#   `2/3/20` <dbl>, `2/4/20` <dbl>, `2/5/20` <dbl>, `2/6/20` <dbl>,
#   `2/7/20` <dbl>, `2/8/20` <dbl>, `2/9/20` <dbl>, `2/10/20` <dbl>,
#   `2/11/20` <dbl>, `2/12/20` <dbl>, `2/13/20` <dbl>, `2/14/20` <dbl>,
#   `2/15/20` <dbl>, `2/16/20` <dbl>, `2/17/20` <dbl>, `2/18/20` <dbl>,
#   `2/19/20` <dbl>, `2/20/20` <dbl>, `2/21/20` <dbl>, `2/22/20` <dbl>,
#   `2/23/20` <dbl>, `2/24/20` <dbl>, `2/25/20` <dbl>, `2/26/20` <dbl>,
…
.column[.content[

```r
library(tidyverse)  

read_csv("time_series_19-covid-Confirmed-2020-03-19.csv") %>%  
* gather(key = "date",
*        value = "num_cases",
*        5:ncol(.))
```
]]
.column[.content[

```
# A tibble: 28,014 x 6
   `Province/State` `Country/Region`    Lat   Long date    num_cases
   <chr>            <chr>             <dbl>  <dbl> <chr>       <dbl>
 1 <NA>             Thailand          15     101   1/22/20         2
 2 <NA>             Japan             36     138   1/22/20         2
 3 <NA>             Singapore          1.28  104.  1/22/20         0
 4 <NA>             Nepal             28.2    84.2 1/22/20         0
 5 <NA>             Malaysia           2.5   112.  1/22/20         0
 6 British Columbia Canada            49.3  -123.  1/22/20         0
 7 New South Wales  Australia        -33.9   151.  1/22/20         0
 8 Victoria         Australia        -37.8   145.  1/22/20         0
 9 Queensland       Australia        -28.0   153.  1/22/20         0
10 <NA>             Cambodia          11.6   105.  1/22/20         0
# … with 28,004 more rows
```
…
```r
library(tidyverse)  

read_csv("time_series_19-covid-Confirmed-2020-03-19.csv") %>%  
  gather(key = "date",  
         value = "num_cases",  
         5:ncol(.))  %>%  
* mutate(date = lubridate::mdy(date))
```
]]
.column[.content[

```
# A tibble: 28,014 x 6
   `Province/State` `Country/Region`    Lat   Long date       num_cases
   <chr>            <chr>             <dbl>  <dbl> <date>         <dbl>
 1 <NA>             Thailand          15     101   2020-01-22         2
 2 <NA>             Japan             36     138   2020-01-22         2
 3 <NA>             Singapore          1.28  104.  2020-01-22         0
 4 <NA>             Nepal             28.2    84.2 2020-01-22         0
 5 <NA>             Malaysia           2.5   112.  2020-01-22         0
 6 British Columbia Canada            49.3  -123.  2020-01-22         0
 7 New South Wales  Australia        -33.9   151.  2020-01-22         0
 8 Victoria         Australia        -37.8   145.  2020-01-22         0
 9 Queensland       Australia        -28.0   153.  2020-01-22         0
10 <NA>             Cambodia          11.6   105.  2020-01-22         0
# … with 28,004 more rows
```
…
```r
library(tidyverse)  

read_csv("time_series_19-covid-Confirmed-2020-03-19.csv") %>%  
  gather(key = "date",  
         value = "num_cases",  
         5:ncol(.))  %>%  
  mutate(date = lubridate::mdy(date)) %>%  
* janitor::clean_names()
```
]]
.column[.content[

```
# A tibble: 28,014 x 6
   province_state   country_region    lat   long date       num_cases
   <chr>            <chr>           <dbl>  <dbl> <date>         <dbl>
 1 <NA>             Thailand        15     101   2020-01-22         2
 2 <NA>             Japan           36     138   2020-01-22         2
 3 <NA>             Singapore        1.28  104.  2020-01-22         0
 4 <NA>             Nepal           28.2    84.2 2020-01-22         0
 5 <NA>             Malaysia         2.5   112.  2020-01-22         0
 6 British Columbia Canada          49.3  -123.  2020-01-22         0
 7 New South Wales  Australia      -33.9   151.  2020-01-22         0
 8 Victoria         Australia      -37.8   145.  2020-01-22         0
 9 Queensland       Australia      -28.0   153.  2020-01-22         0
10 <NA>             Cambodia        11.6   105.  2020-01-22         0
# … with 28,004 more rows
```
…
read_csv("time_series_19-covid-Confirmed-2020-03-19.csv") %>%  
  gather(key = "date",  
         value = "num_cases",  
         5:ncol(.))  %>%  
  mutate(date = lubridate::mdy(date)) %>%  
  janitor::clean_names() %>%  
* filter(country_region != "Cruise Ship")
```
]]
.column[.content[

```
# A tibble: 27,956 x 6
   province_state   country_region    lat   long date       num_cases
   <chr>            <chr>           <dbl>  <dbl> <date>         <dbl>
 1 <NA>             Thailand        15     101   2020-01-22         2
 2 <NA>             Japan           36     138   2020-01-22         2
 3 <NA>             Singapore        1.28  104.  2020-01-22         0
 4 <NA>             Nepal           28.2    84.2 2020-01-22         0
 5 <NA>             Malaysia         2.5   112.  2020-01-22         0
 6 British Columbia Canada          49.3  -123.  2020-01-22         0
 7 New South Wales  Australia      -33.9   151.  2020-01-22         0
 8 Victoria         Australia      -37.8   145.  2020-01-22         0
 9 Queensland       Australia      -28.0   153.  2020-01-22         0
10 <NA>             Cambodia        11.6   105.  2020-01-22         0
# … with 27,946 more rows
```
…
read_csv("time_series_19-covid-Confirmed-2020-03-19.csv") %>%  
  gather(key = "date",  
         value = "num_cases",  
         5:ncol(.))  %>%  
  mutate(date = lubridate::mdy(date)) %>%  
  janitor::clean_names() %>%  
  filter(country_region != "Cruise Ship") %>%  
* group_by(country_region, date)
```
]]
.column[.content[

```
# A tibble: 27,956 x 6
# Groups:   country_region, date [9,686]
   province_state   country_region    lat   long date       num_cases
   <chr>            <chr>           <dbl>  <dbl> <date>         <dbl>
 1 <NA>             Thailand        15     101   2020-01-22         2
 2 <NA>             Japan           36     138   2020-01-22         2
 3 <NA>             Singapore        1.28  104.  2020-01-22         0
 4 <NA>             Nepal           28.2    84.2 2020-01-22         0
 5 <NA>             Malaysia         2.5   112.  2020-01-22         0
 6 British Columbia Canada          49.3  -123.  2020-01-22         0
 7 New South Wales  Australia      -33.9   151.  2020-01-22         0
 8 Victoria         Australia      -37.8   145.  2020-01-22         0
 9 Queensland       Australia      -28.0   153.  2020-01-22         0
10 <NA>             Cambodia        11.6   105.  2020-01-22         0
# … with 27,946 more rows
```
…
read_csv("time_series_19-covid-Confirmed-2020-03-19.csv") %>%  
  gather(key = "date",  
         value = "num_cases",  
         5:ncol(.))  %>%  
  mutate(date = lubridate::mdy(date)) %>%  
  janitor::clean_names() %>%  
  filter(country_region != "Cruise Ship") %>%  
  group_by(country_region, date) %>%  
* summarize(num_cases = sum(num_cases))
```
]]
.column[.content[

```
# A tibble: 9,686 x 3
# Groups:   country_region [167]
   country_region date       num_cases
   <chr>          <date>         <dbl>
 1 Afghanistan    2020-01-22         0
 2 Afghanistan    2020-01-23         0
 3 Afghanistan    2020-01-24         0
 4 Afghanistan    2020-01-25         0
 5 Afghanistan    2020-01-26         0
 6 Afghanistan    2020-01-27         0
 7 Afghanistan    2020-01-28         0
 8 Afghanistan    2020-01-29         0
 9 Afghanistan    2020-01-30         0
10 Afghanistan    2020-01-31         0
# … with 9,676 more rows
```
…
*data_long
```
]]
.column[.content[

```
# A tibble: 9,686 x 3
# Groups:   country_region [167]
   country_region date       num_cases
   <chr>          <date>         <dbl>
 1 Afghanistan    2020-01-22         0
 2 Afghanistan    2020-01-23         0
 3 Afghanistan    2020-01-24         0
 4 Afghanistan    2020-01-25         0
 5 Afghanistan    2020-01-26         0
 6 Afghanistan    2020-01-27         0
 7 Afghanistan    2020-01-28         0
 8 Afghanistan    2020-01-29         0
 9 Afghanistan    2020-01-30         0
10 Afghanistan    2020-01-31         0
# … with 9,676 more rows
```
…
data_long %>%  
* group_by(country_region)
```
]]
.column[.content[

```
# A tibble: 9,686 x 3
# Groups:   country_region [167]
   country_region date       num_cases
   <chr>          <date>         <dbl>
 1 Afghanistan    2020-01-22         0
 2 Afghanistan    2020-01-23         0
 3 Afghanistan    2020-01-24         0
 4 Afghanistan    2020-01-25         0
 5 Afghanistan    2020-01-26         0
 6 Afghanistan    2020-01-27         0
 7 Afghanistan    2020-01-28         0
 8 Afghanistan    2020-01-29         0
 9 Afghanistan    2020-01-30         0
10 Afghanistan    2020-01-31         0
# … with 9,676 more rows
```
…
data_long %>%  
  group_by(country_region) %>%  
* summarize(max_cases = max(num_cases))
```
]]
.column[.content[

```
# A tibble: 167 x 2
   country_region      max_cases
   <chr>                   <dbl>
 1 Afghanistan                22
 2 Albania                    64
 3 Algeria                    87
 4 Andorra                    53
 5 Antigua and Barbuda         1
 6 Argentina                  97
 7 Armenia                   115
 8 Aruba                       4
 9 Australia                 681
10 Austria                  2013
# … with 157 more rows
```
…
data_long %>%  
  group_by(country_region) %>%  
  summarize(max_cases = max(num_cases)) %>%  
* arrange(-max_cases)
```
]]
.column[.content[

```
# A tibble: 167 x 2
   country_region max_cases
   <chr>              <dbl>
 1 China              81156
 2 Italy              41035
 3 Iran               18407
 4 Spain              17963
 5 Germany            15320
 6 France             10886
 7 Korea, South        8565
 8 Switzerland         4075
 9 United Kingdom      2716
10 Netherlands         2465
# … with 157 more rows
```
…
.column[.content[

```r
options(scipen = 10)  
top_20 %>%  
* left_join(data_long)
```
]]
.column[.content[

```
# A tibble: 1,160 x 4
   country_region max_cases date       num_cases
   <chr>              <dbl> <date>         <dbl>
 1 China              81156 2020-01-22       548
 2 China              81156 2020-01-23       643
 3 China              81156 2020-01-24       920
 4 China              81156 2020-01-25      1406
 5 China              81156 2020-01-26      2075
 6 China              81156 2020-01-27      2877
 7 China              81156 2020-01-28      5509
 8 China              81156 2020-01-29      6087
 9 China              81156 2020-01-30      8141
10 China              81156 2020-01-31      9802
# … with 1,150 more rows
```
…
*data_long
```
]]
.column[.content[

```
# A tibble: 9,686 x 3
# Groups:   country_region [167]
   country_region date       num_cases
   <chr>          <date>         <dbl>
 1 Afghanistan    2020-01-22         0
 2 Afghanistan    2020-01-23         0
 3 Afghanistan    2020-01-24         0
 4 Afghanistan    2020-01-25         0
 5 Afghanistan    2020-01-26         0
 6 Afghanistan    2020-01-27         0
 7 Afghanistan    2020-01-28         0
 8 Afghanistan    2020-01-29         0
 9 Afghanistan    2020-01-30         0
10 Afghanistan    2020-01-31         0
# … with 9,676 more rows
```
…
data_long %>%  
* filter(num_cases > 100)
```
]]
.column[.content[

```
# A tibble: 585 x 3
# Groups:   country_region [62]
   country_region date       num_cases
   <chr>          <date>         <dbl>
 1 Armenia        2020-03-19       115
 2 Australia      2020-03-10       107
 3 Australia      2020-03-11       128
 4 Australia      2020-03-12       128
 5 Australia      2020-03-13       200
 6 Australia      2020-03-14       250
 7 Australia      2020-03-15       297
 8 Australia      2020-03-16       377
 9 Australia      2020-03-17       452
10 Australia      2020-03-18       568
# … with 575 more rows
```
…
data_long %>%  
  filter(num_cases > 100) %>%  
* group_by(country_region)
```
]]
.column[.content[

```
# A tibble: 585 x 3
# Groups:   country_region [62]
   country_region date       num_cases
   <chr>          <date>         <dbl>
 1 Armenia        2020-03-19       115
 2 Australia      2020-03-10       107
 3 Australia      2020-03-11       128
 4 Australia      2020-03-12       128
 5 Australia      2020-03-13       200
 6 Australia      2020-03-14       250
 7 Australia      2020-03-15       297
 8 Australia      2020-03-16       377
 9 Australia      2020-03-17       452
10 Australia      2020-03-18       568
# … with 575 more rows
```
…
data_long %>%  
  filter(num_cases > 100) %>%  
  group_by(country_region) %>%  
* mutate(first_data_w_100 = min(date))
```
]]
.column[.content[

```
# A tibble: 585 x 4
# Groups:   country_region [62]
   country_region date       num_cases first_data_w_100
   <chr>          <date>         <dbl> <date>          
 1 Armenia        2020-03-19       115 2020-03-19      
 2 Australia      2020-03-10       107 2020-03-10      
 3 Australia      2020-03-11       128 2020-03-10      
 4 Australia      2020-03-12       128 2020-03-10      
 5 Australia      2020-03-13       200 2020-03-10      
 6 Australia      2020-03-14       250 2020-03-10      
 7 Australia      2020-03-15       297 2020-03-10      
 8 Australia      2020-03-16       377 2020-03-10      
 9 Australia      2020-03-17       452 2020-03-10      
10 Australia      2020-03-18       568 2020-03-10      
# … with 575 more rows
```
…
data_long %>%  
  filter(num_cases > 100) %>%  
  group_by(country_region) %>%  
  mutate(first_data_w_100 = min(date)) %>%  
* mutate(days_since_100 = date - first_data_w_100)
```
]]
.column[.content[

```
# A tibble: 585 x 5
# Groups:   country_region [62]
   country_region date       num_cases first_data_w_100 days_since_100
   <chr>          <date>         <dbl> <date>           <drtn>        
 1 Armenia        2020-03-19       115 2020-03-19       0 days        
 2 Australia      2020-03-10       107 2020-03-10       0 days        
 3 Australia      2020-03-11       128 2020-03-10       1 days        
 4 Australia      2020-03-12       128 2020-03-10       2 days        
 5 Australia      2020-03-13       200 2020-03-10       3 days        
 6 Australia      2020-03-14       250 2020-03-10       4 days        
 7 Australia      2020-03-15       297 2020-03-10       5 days        
 8 Australia      2020-03-16       377 2020-03-10       6 days        
 9 Australia      2020-03-17       452 2020-03-10       7 days        
10 Australia      2020-03-18       568 2020-03-10       8 days        
# … with 575 more rows
```
…
