A collection of COVID-19 Data Visualization
…
.column[.content[

```r
library(tidyverse)  
*read_csv("time_series_19-covid-Confirmed-2020-03-19.csv")
```
]]
.column[.content[

```
# A tibble: 483 x 62
   `Province/State` `Country/Region`    Lat   Long `1/22/20` `1/23/20` `1/24/20`
   <chr>            <chr>             <dbl>  <dbl>     <dbl>     <dbl>     <dbl>
 1 <NA>             Thailand          15     101           2         3         5
 2 <NA>             Japan             36     138           2         1         2
 3 <NA>             Singapore          1.28  104.          0         1         3
 4 <NA>             Nepal             28.2    84.2         0         0         0
 5 <NA>             Malaysia           2.5   112.          0         0         0
 6 British Columbia Canada            49.3  -123.          0         0         0
 7 New South Wales  Australia        -33.9   151.          0         0         0
 8 Victoria         Australia        -37.8   145.          0         0         0
 9 Queensland       Australia        -28.0   153.          0         0         0
10 <NA>             Cambodia          11.6   105.          0         0         0
# … with 473 more rows, and 55 more variables: `1/25/20` <dbl>,
#   `1/26/20` <dbl>, `1/27/20` <dbl>, `1/28/20` <dbl>, `1/29/20` <dbl>,
#   `1/30/20` <dbl>, `1/31/20` <dbl>, `2/1/20` <dbl>, `2/2/20` <dbl>,
#   `2/3/20` <dbl>, `2/4/20` <dbl>, `2/5/20` <dbl>, `2/6/20` <dbl>,
#   `2/7/20` <dbl>, `2/8/20` <dbl>, `2/9/20` <dbl>, `2/10/20` <dbl>,
#   `2/11/20` <dbl>, `2/12/20` <dbl>, `2/13/20` <dbl>, `2/14/20` <dbl>,
#   `2/15/20` <dbl>, `2/16/20` <dbl>, `2/17/20` <dbl>, `2/18/20` <dbl>,
#   `2/19/20` <dbl>, `2/20/20` <dbl>, `2/21/20` <dbl>, `2/22/20` <dbl>,
#   `2/23/20` <dbl>, `2/24/20` <dbl>, `2/25/20` <dbl>, `2/26/20` <dbl>,
…
.column[.content[

```r
library(tidyverse)  
read_csv("time_series_19-covid-Confirmed-2020-03-19.csv") %>%  
* gather(date, cases, 5:ncol(.))
```
]]
.column[.content[

```
# A tibble: 28,014 x 6
   `Province/State` `Country/Region`    Lat   Long date    cases
   <chr>            <chr>             <dbl>  <dbl> <chr>   <dbl>
 1 <NA>             Thailand          15     101   1/22/20     2
 2 <NA>             Japan             36     138   1/22/20     2
 3 <NA>             Singapore          1.28  104.  1/22/20     0
 4 <NA>             Nepal             28.2    84.2 1/22/20     0
 5 <NA>             Malaysia           2.5   112.  1/22/20     0
 6 British Columbia Canada            49.3  -123.  1/22/20     0
 7 New South Wales  Australia        -33.9   151.  1/22/20     0
 8 Victoria         Australia        -37.8   145.  1/22/20     0
 9 Queensland       Australia        -28.0   153.  1/22/20     0
10 <NA>             Cambodia          11.6   105.  1/22/20     0
# … with 28,004 more rows
```
…
.column[.content[

```r
library(tidyverse)  
read_csv("time_series_19-covid-Confirmed-2020-03-19.csv") %>%  
  gather(date, cases, 5:ncol(.)) %>%  
* mutate(date = as.Date(date, "%m/%d/%y"))
```
]]
.column[.content[

```
# A tibble: 28,014 x 6
   `Province/State` `Country/Region`    Lat   Long date       cases
   <chr>            <chr>             <dbl>  <dbl> <date>     <dbl>
 1 <NA>             Thailand          15     101   2020-01-22     2
 2 <NA>             Japan             36     138   2020-01-22     2
 3 <NA>             Singapore          1.28  104.  2020-01-22     0
 4 <NA>             Nepal             28.2    84.2 2020-01-22     0
 5 <NA>             Malaysia           2.5   112.  2020-01-22     0
 6 British Columbia Canada            49.3  -123.  2020-01-22     0
 7 New South Wales  Australia        -33.9   151.  2020-01-22     0
 8 Victoria         Australia        -37.8   145.  2020-01-22     0
 9 Queensland       Australia        -28.0   153.  2020-01-22     0
10 <NA>             Cambodia          11.6   105.  2020-01-22     0
# … with 28,004 more rows
```
…
.column[.content[

```r
library(tidyverse)  
read_csv("time_series_19-covid-Confirmed-2020-03-19.csv") %>%  
  gather(date, cases, 5:ncol(.)) %>%  
  mutate(date = as.Date(date, "%m/%d/%y")) %>%  
* group_by(country = `Country/Region`, date)
```
]]
.column[.content[

```
# A tibble: 28,014 x 7
# Groups:   country, date [9,744]
   `Province/State` `Country/Region`    Lat   Long date       cases country  
   <chr>            <chr>             <dbl>  <dbl> <date>     <dbl> <chr>    
 1 <NA>             Thailand          15     101   2020-01-22     2 Thailand 
 2 <NA>             Japan             36     138   2020-01-22     2 Japan    
 3 <NA>             Singapore          1.28  104.  2020-01-22     0 Singapore
 4 <NA>             Nepal             28.2    84.2 2020-01-22     0 Nepal    
 5 <NA>             Malaysia           2.5   112.  2020-01-22     0 Malaysia 
 6 British Columbia Canada            49.3  -123.  2020-01-22     0 Canada   
 7 New South Wales  Australia        -33.9   151.  2020-01-22     0 Australia
 8 Victoria         Australia        -37.8   145.  2020-01-22     0 Australia
 9 Queensland       Australia        -28.0   153.  2020-01-22     0 Australia
10 <NA>             Cambodia          11.6   105.  2020-01-22     0 Cambodia 
# … with 28,004 more rows
```
…
.column[.content[

```r
library(tidyverse)  
read_csv("time_series_19-covid-Confirmed-2020-03-19.csv") %>%  
  gather(date, cases, 5:ncol(.)) %>%  
  mutate(date = as.Date(date, "%m/%d/%y")) %>%  
  group_by(country = `Country/Region`, date) %>%  
* summarise(cases = sum(cases))
```
]]
.column[.content[

```
# A tibble: 9,744 x 3
# Groups:   country [168]
   country     date       cases
   <chr>       <date>     <dbl>
 1 Afghanistan 2020-01-22     0
 2 Afghanistan 2020-01-23     0
 3 Afghanistan 2020-01-24     0
 4 Afghanistan 2020-01-25     0
 5 Afghanistan 2020-01-26     0
 6 Afghanistan 2020-01-27     0
 7 Afghanistan 2020-01-28     0
 8 Afghanistan 2020-01-29     0
 9 Afghanistan 2020-01-30     0
10 Afghanistan 2020-01-31     0
# … with 9,734 more rows
```
…
```r
library(tidyverse)  
read_csv("time_series_19-covid-Confirmed-2020-03-19.csv") %>%  
  gather(date, cases, 5:ncol(.)) %>%  
  mutate(date = as.Date(date, "%m/%d/%y")) %>%  
  group_by(country = `Country/Region`, date) %>%  
  summarise(cases = sum(cases)) %>%  
* filter(country != "Others" &
*          country != "China")
```
]]
.column[.content[

```
# A tibble: 9,686 x 3
# Groups:   country [167]
   country     date       cases
   <chr>       <date>     <dbl>
 1 Afghanistan 2020-01-22     0
 2 Afghanistan 2020-01-23     0
 3 Afghanistan 2020-01-24     0
 4 Afghanistan 2020-01-25     0
 5 Afghanistan 2020-01-26     0
 6 Afghanistan 2020-01-27     0
 7 Afghanistan 2020-01-28     0
 8 Afghanistan 2020-01-29     0
 9 Afghanistan 2020-01-30     0
10 Afghanistan 2020-01-31     0
# … with 9,676 more rows
```
…
```
# A tibble: 9,687 x 3
# Groups:   country [168]
   country     date       cases
   <chr>       <date>     <dbl>
 1 Afghanistan 2020-01-22     0
 2 Afghanistan 2020-01-23     0
 3 Afghanistan 2020-01-24     0
 4 Afghanistan 2020-01-25     0
 5 Afghanistan 2020-01-26     0
 6 Afghanistan 2020-01-27     0
 7 Afghanistan 2020-01-28     0
 8 Afghanistan 2020-01-29     0
 9 Afghanistan 2020-01-30     0
10 Afghanistan 2020-01-31     0
# … with 9,677 more rows
```
…
```
# A tibble: 9,687 x 3
# Groups:   country [168]
   country     date       cases
   <chr>       <date>     <dbl>
 1 Afghanistan 2020-01-22     0
 2 Afghanistan 2020-01-23     0
 3 Afghanistan 2020-01-24     0
 4 Afghanistan 2020-01-25     0
 5 Afghanistan 2020-01-26     0
 6 Afghanistan 2020-01-27     0
 7 Afghanistan 2020-01-28     0
 8 Afghanistan 2020-01-29     0
 9 Afghanistan 2020-01-30     0
10 Afghanistan 2020-01-31     0
# … with 9,677 more rows
```
…
```
# A tibble: 8,351 x 3
# Groups:   country [168]
   country     date       cases
   <chr>       <date>     <dbl>
 1 Afghanistan 2020-01-22     0
 2 Afghanistan 2020-01-23     0
 3 Afghanistan 2020-01-24     0
 4 Afghanistan 2020-01-25     0
 5 Afghanistan 2020-01-26     0
 6 Afghanistan 2020-01-27     0
 7 Afghanistan 2020-01-28     0
 8 Afghanistan 2020-01-29     0
 9 Afghanistan 2020-01-30     0
10 Afghanistan 2020-01-31     0
# … with 8,341 more rows
```
…
```
# A tibble: 8,301 x 3
# Groups:   country [167]
   country     date       cases
   <chr>       <date>     <dbl>
 1 Afghanistan 2020-01-22     0
 2 Afghanistan 2020-01-23     0
 3 Afghanistan 2020-01-24     0
 4 Afghanistan 2020-01-25     0
 5 Afghanistan 2020-01-26     0
 6 Afghanistan 2020-01-27     0
 7 Afghanistan 2020-01-28     0
 8 Afghanistan 2020-01-29     0
 9 Afghanistan 2020-01-30     0
10 Afghanistan 2020-01-31     0
# … with 8,291 more rows
```
…
```
# A tibble: 8,301 x 4
# Groups:   country [167]
   country     date       cases days_since_100
   <chr>       <date>     <dbl>          <dbl>
 1 Afghanistan 2020-01-22     0           -Inf
 2 Afghanistan 2020-01-23     0           -Inf
 3 Afghanistan 2020-01-24     0           -Inf
 4 Afghanistan 2020-01-25     0           -Inf
 5 Afghanistan 2020-01-26     0           -Inf
 6 Afghanistan 2020-01-27     0           -Inf
 7 Afghanistan 2020-01-28     0           -Inf
 8 Afghanistan 2020-01-29     0           -Inf
 9 Afghanistan 2020-01-30     0           -Inf
10 Afghanistan 2020-01-31     0           -Inf
# … with 8,291 more rows
```
…
```
# A tibble: 8,301 x 4
   country     date       cases days_since_100
   <chr>       <date>     <dbl>          <dbl>
 1 Afghanistan 2020-01-22     0           -Inf
 2 Afghanistan 2020-01-23     0           -Inf
 3 Afghanistan 2020-01-24     0           -Inf
 4 Afghanistan 2020-01-25     0           -Inf
 5 Afghanistan 2020-01-26     0           -Inf
 6 Afghanistan 2020-01-27     0           -Inf
 7 Afghanistan 2020-01-28     0           -Inf
 8 Afghanistan 2020-01-29     0           -Inf
 9 Afghanistan 2020-01-30     0           -Inf
10 Afghanistan 2020-01-31     0           -Inf
# … with 8,291 more rows
```
…
```
# A tibble: 1,151 x 4
   country   date       cases days_since_100
   <chr>     <date>     <dbl>          <dbl>
 1 Australia 2020-01-22     0            -48
 2 Australia 2020-01-23     0            -47
 3 Australia 2020-01-24     0            -46
 4 Australia 2020-01-25     0            -45
 5 Australia 2020-01-26     4            -44
 6 Australia 2020-01-27     5            -43
 7 Australia 2020-01-28     5            -42
 8 Australia 2020-01-29     6            -41
 9 Australia 2020-01-30     9            -40
10 Australia 2020-01-31     9            -39
# … with 1,141 more rows
```
…
```
# A tibble: 1,151 x 4
# Groups:   country [24]
   country   date       cases days_since_100
   <chr>     <date>     <dbl>          <dbl>
 1 Australia 2020-01-22     0            -48
 2 Australia 2020-01-23     0            -47
 3 Australia 2020-01-24     0            -46
 4 Australia 2020-01-25     0            -45
 5 Australia 2020-01-26     4            -44
 6 Australia 2020-01-27     5            -43
 7 Australia 2020-01-28     5            -42
 8 Australia 2020-01-29     6            -41
 9 Australia 2020-01-30     9            -40
10 Australia 2020-01-31     9            -39
# … with 1,141 more rows
```
…
```
# A tibble: 1,151 x 5
# Groups:   country [24]
   country   date       cases days_since_100 new_cases
   <chr>     <date>     <dbl>          <dbl>     <dbl>
 1 Australia 2020-01-22     0            -48      -107
 2 Australia 2020-01-23     0            -47      -107
 3 Australia 2020-01-24     0            -46      -107
 4 Australia 2020-01-25     0            -45      -107
 5 Australia 2020-01-26     4            -44      -103
 6 Australia 2020-01-27     5            -43      -102
 7 Australia 2020-01-28     5            -42      -102
 8 Australia 2020-01-29     6            -41      -101
 9 Australia 2020-01-30     9            -40       -98
10 Australia 2020-01-31     9            -39       -98
# … with 1,141 more rows
```
…
```
# A tibble: 750 x 5
# Groups:   country [15]
   country date       cases days_since_100 new_cases
   <chr>   <date>     <dbl>          <dbl>     <dbl>
 1 Belgium 2020-01-22     0            -44      -109
 2 Belgium 2020-01-23     0            -43      -109
 3 Belgium 2020-01-24     0            -42      -109
 4 Belgium 2020-01-25     0            -41      -109
 5 Belgium 2020-01-26     0            -40      -109
 6 Belgium 2020-01-27     0            -39      -109
 7 Belgium 2020-01-28     0            -38      -109
 8 Belgium 2020-01-29     0            -37      -109
 9 Belgium 2020-01-30     0            -36      -109
10 Belgium 2020-01-31     0            -35      -109
# … with 740 more rows
```
…
```
# A tibble: 166 x 5
# Groups:   country [15]
   country date       cases days_since_100 new_cases
   <chr>   <date>     <dbl>          <dbl>     <dbl>
 1 Belgium 2020-03-06   109              0         0
 2 Belgium 2020-03-07   169              1        60
 3 Belgium 2020-03-08   200              2        91
 4 Belgium 2020-03-09   239              3       130
 5 Belgium 2020-03-10   267              4       158
 6 Belgium 2020-03-11   314              5       205
 7 France  2020-02-29   100              0         0
 8 France  2020-03-01   130              1        30
 9 France  2020-03-02   191              2        91
10 France  2020-03-03   204              3       104
# … with 156 more rows
```
…
```
# A tibble: 185 x 5
# Groups:   country [16]
   country date       cases days_since_100 new_cases
   <chr>   <date>     <dbl>          <dbl>     <dbl>
 1 Belgium 2020-03-06   109              0         0
 2 Belgium 2020-03-07   169              1        60
 3 Belgium 2020-03-08   200              2        91
 4 Belgium 2020-03-09   239              3       130
 5 Belgium 2020-03-10   267              4       158
 6 Belgium 2020-03-11   314              5       205
 7 France  2020-02-29   100              0         0
 8 France  2020-03-01   130              1        30
 9 France  2020-03-02   191              2        91
10 France  2020-03-03   204              3       104
# … with 175 more rows
```
…
```
# A tibble: 185 x 5
   country date       cases days_since_100 new_cases
   <chr>   <date>     <dbl>          <dbl>     <dbl>
 1 Belgium 2020-03-06   109              0         0
 2 Belgium 2020-03-07   169              1        60
 3 Belgium 2020-03-08   200              2        91
 4 Belgium 2020-03-09   239              3       130
 5 Belgium 2020-03-10   267              4       158
 6 Belgium 2020-03-11   314              5       205
 7 France  2020-02-29   100              0         0
 8 France  2020-03-01   130              1        30
 9 France  2020-03-02   191              2        91
10 France  2020-03-03   204              3       104
# … with 175 more rows
```
…
```
# A tibble: 185 x 5
   country date       cases days_since_100 new_cases
   <chr>   <date>     <dbl>          <dbl>     <dbl>
 1 Belgium 2020-03-06   109              0         0
 2 Belgium 2020-03-07   169              1        60
 3 Belgium 2020-03-08   200              2        91
 4 Belgium 2020-03-09   239              3       130
 5 Belgium 2020-03-10   267              4       158
 6 Belgium 2020-03-11   314              5       205
 7 France  2020-02-29   100              0         0
 8 France  2020-03-01   130              1        30
 9 France  2020-03-02   191              2        91
10 France  2020-03-03   204              3       104
# … with 175 more rows
```
…
---

class: split-40
count: false

.column[.content[

```r
*data
```
]]
.column[.content[

```
# A tibble: 185 x 5
   country date       cases days_since_100 new_cases
   <chr>   <date>     <dbl>          <dbl>     <dbl>
 1 Belgium 2020-03-06   109              0         0
 2 Belgium 2020-03-07   169              1        60
 3 Belgium 2020-03-08   200              2        91
 4 Belgium 2020-03-09   239              3       130
 5 Belgium 2020-03-10   267              4       158
 6 Belgium 2020-03-11   314              5       205
 7 France  2020-02-29   100              0         0
 8 France  2020-03-01   130              1        30
 9 France  2020-03-02   191              2        91
10 France  2020-03-03   204              3       104
# … with 175 more rows
```
…
