A collection of COVID-19 Data Visualization
…
---

class: split-40
count: false

.column[.content[

```r
*covid19us::get_states_current()
```
]]
.column[.content[

```
# A tibble: 56 x 21
   state positive positive_score negative_score negative_regula…
   <chr>    <int>          <int>          <int>            <int>
 1 AK          69              1              1                1
 2 AL         587              1              1                0
 3 AR         381              1              1                1
 4 AZ         736              1              1                0
 5 CA        3879              1              1                1
 6 CO        1430              1              1                1
 7 CT        1291              1              1                1
 8 DC         267              1              1                1
 9 DE         163              1              1                0
10 FL        2765              1              1                1
# … with 46 more rows, and 16 more variables: commercial_score <int>,
#   grade <chr>, score <int>, negative <int>, pending <int>,
#   hospitalized <int>, death <int>, total <int>, last_update <dttm>,
#   check_time <dttm>, total_test_results <int>, fips <chr>,
#   date_modified <dttm>, date_checked <dttm>, notes <chr>,
#   request_datetime <dttm>
```
…
.column[.content[

```r
covid19us::get_states_current() %>%  
* arrange(desc(positive))
```
]]
.column[.content[

```
# A tibble: 56 x 21
   state positive positive_score negative_score negative_regula…
   <chr>    <int>          <int>          <int>            <int>
 1 NY       44635              1              1                1
 2 NJ        8825              1              1                1
 3 CA        3879              1              1                1
 4 MI        3657              1              1                0
 5 MA        3240              1              1                0
 6 WA        3207              1              1                1
 7 IL        3060              1              1                1
 8 FL        2765              1              1                1
 9 LA        2746              1              1                1
10 PA        2218              1              1                1
# … with 46 more rows, and 16 more variables: commercial_score <int>,
#   grade <chr>, score <int>, negative <int>, pending <int>,
#   hospitalized <int>, death <int>, total <int>, last_update <dttm>,
#   check_time <dttm>, total_test_results <int>, fips <chr>,
#   date_modified <dttm>, date_checked <dttm>, notes <chr>,
#   request_datetime <dttm>
```
…
covid19us::get_states_daily()[1,1] %>%  
  pull() ->  
end_date  

*covid19us::get_states_daily()
```
]]
.column[.content[

```
# A tibble: 1,205 x 18
   date       state positive negative pending hospitalized death total hash 
   <date>     <chr>    <int>    <int>   <int>        <int> <int> <int> <chr>
 1 2020-03-27 AK          69     2319      13            3     1  2401 588f…
 2 2020-03-27 AL         587     4184      NA           NA     3  4771 c388…
 3 2020-03-27 AR         381     1545       0           48     3  1926 a67d…
 4 2020-03-27 AS           0       NA       0           NA     0     0 84ba…
 5 2020-03-27 AZ         736     7455      30           NA    13  8221 81fb…
 6 2020-03-27 CA        3879    17380   57400          746    78 78659 d7b5…
 7 2020-03-27 CO        1430     8692      NA          184    24 10122 47ea…
 8 2020-03-27 CT        1291     7109      NA          173    27  8400 8904…
 9 2020-03-27 DC         267     1897       2           NA     3  2166 240b…
10 2020-03-27 DE         163       36      NA           15     2   199 86c4…
# … with 1,195 more rows, and 9 more variables: date_checked <dttm>,
#   total_test_results <int>, fips <chr>, death_increase <int>,
#   hospitalized_increase <int>, negative_increase <int>,
#   positive_increase <int>, total_test_results_increase <int>,
#   request_datetime <dttm>
```
…
covid19us::get_states_daily()[1,1] %>%  
  pull() ->  
end_date  

covid19us::get_states_daily() %>%  
* replace_na(list(positive = 0))
```
]]
.column[.content[

```
# A tibble: 1,205 x 18
   date       state positive negative pending hospitalized death total hash 
   <date>     <chr>    <dbl>    <int>   <int>        <int> <int> <int> <chr>
 1 2020-03-27 AK          69     2319      13            3     1  2401 588f…
 2 2020-03-27 AL         587     4184      NA           NA     3  4771 c388…
 3 2020-03-27 AR         381     1545       0           48     3  1926 a67d…
 4 2020-03-27 AS           0       NA       0           NA     0     0 84ba…
 5 2020-03-27 AZ         736     7455      30           NA    13  8221 81fb…
 6 2020-03-27 CA        3879    17380   57400          746    78 78659 d7b5…
 7 2020-03-27 CO        1430     8692      NA          184    24 10122 47ea…
 8 2020-03-27 CT        1291     7109      NA          173    27  8400 8904…
 9 2020-03-27 DC         267     1897       2           NA     3  2166 240b…
10 2020-03-27 DE         163       36      NA           15     2   199 86c4…
# … with 1,195 more rows, and 9 more variables: date_checked <dttm>,
#   total_test_results <int>, fips <chr>, death_increase <int>,
#   hospitalized_increase <int>, negative_increase <int>,
#   positive_increase <int>, total_test_results_increase <int>,
#   request_datetime <dttm>
```
…
covid19us::get_states_daily()[1,1] %>%  
  pull() ->  
end_date  

covid19us::get_states_daily() %>%  
  replace_na(list(positive = 0)) %>%  
* select(date, state, positive, death)
```
]]
.column[.content[

```
# A tibble: 1,205 x 4
   date       state positive death
   <date>     <chr>    <dbl> <int>
 1 2020-03-27 AK          69     1
 2 2020-03-27 AL         587     3
 3 2020-03-27 AR         381     3
 4 2020-03-27 AS           0     0
 5 2020-03-27 AZ         736    13
 6 2020-03-27 CA        3879    78
 7 2020-03-27 CO        1430    24
 8 2020-03-27 CT        1291    27
 9 2020-03-27 DC         267     3
10 2020-03-27 DE         163     2
# … with 1,195 more rows
```
…
covid19us::get_states_daily()[1,1] %>%  
  pull() ->  
end_date  

covid19us::get_states_daily() %>%  
  replace_na(list(positive = 0)) %>%  
  select(date, state, positive, death) %>%  
* filter(state %in% c(top10states))
```
]]
.column[.content[

```
# A tibble: 233 x 4
   date       state positive death
   <date>     <chr>    <dbl> <int>
 1 2020-03-27 CA        3879    78
 2 2020-03-27 FL        2765    34
 3 2020-03-27 IL        3060    34
 4 2020-03-27 LA        2746   119
 5 2020-03-27 MA        3240    35
 6 2020-03-27 MI        3657    92
 7 2020-03-27 NJ        8825   108
 8 2020-03-27 NY       44635   519
 9 2020-03-27 PA        2218    22
10 2020-03-27 WA        3207   147
# … with 223 more rows
```
…
covid19us::get_states_daily()[1,1] %>%  
  pull() ->  
end_date  

covid19us::get_states_daily() %>%  
  replace_na(list(positive = 0)) %>%  
  select(date, state, positive, death) %>%  
  filter(state %in% c(top10states)) %>%  
* mutate(state = factor(state, levels = top10states))
```
]]
.column[.content[

```
# A tibble: 233 x 4
   date       state positive death
   <date>     <fct>    <dbl> <int>
 1 2020-03-27 CA        3879    78
 2 2020-03-27 FL        2765    34
 3 2020-03-27 IL        3060    34
 4 2020-03-27 LA        2746   119
 5 2020-03-27 MA        3240    35
 6 2020-03-27 MI        3657    92
 7 2020-03-27 NJ        8825   108
 8 2020-03-27 NY       44635   519
 9 2020-03-27 PA        2218    22
10 2020-03-27 WA        3207   147
# … with 223 more rows
```
…
# clean up corona data ----
data[1] %>%  
  as.data.frame() %>%  
  filter( X1 != "County") %>%  
  filter( X1 != "Out of State") %>%  
  filter( X1 != "Not Reported") %>%  
  filter( X1 != "Total") %>%  
  purrr::set_names("county", "cases", "deaths") %>%  
* as_tibble()
```
]]
.column[.content[

```
# A tibble: 48 x 3
   county       cases deaths
   <chr>        <chr> <chr> 
 1 Allegan      1     ""    
 2 Barry        1     ""    
 3 Bay          3     ""    
 4 Berrien      10    ""    
 5 Calhoun      6     ""    
 6 Charlevoix   4     ""    
 7 Chippewa     1     ""    
 8 Clare        1     ""    
 9 Clinton      6     ""    
10 Detroit City 705   "12"  
# … with 38 more rows
```
…
```
# A tibble: 48 x 3
   county       cases deaths
   <chr>        <dbl>  <dbl>
 1 Allegan          1     NA
 2 Barry            1     NA
 3 Bay              3     NA
 4 Berrien         10     NA
 5 Calhoun          6     NA
 6 Charlevoix       4     NA
 7 Chippewa         1     NA
 8 Clare            1     NA
 9 Clinton          6     NA
10 Detroit City   705     12
# … with 38 more rows
```
…
class: split-40
count: false

.column[.content[

```r
# Detroit City and Wayne county have separate health departments
# for goofy historical reasons - will combine into Wayne County
*mi_corona2
```
]]
.column[.content[

```
# A tibble: 48 x 3
   county       cases deaths
   <chr>        <dbl>  <dbl>
 1 Allegan          1     NA
 2 Barry            1     NA
 3 Bay              3     NA
 4 Berrien         10     NA
 5 Calhoun          6     NA
 6 Charlevoix       4     NA
 7 Chippewa         1     NA
 8 Clare            1     NA
 9 Clinton          6     NA
10 Detroit City   705     12
# … with 38 more rows
```
…
*mi_corona2
```
]]
.column[.content[

```
# A tibble: 48 x 3
   county       cases deaths
   <chr>        <dbl>  <dbl>
 1 Allegan          1     NA
 2 Barry            1     NA
 3 Bay              3     NA
 4 Berrien         10     NA
 5 Calhoun          6     NA
 6 Charlevoix       4     NA
 7 Chippewa         1     NA
 8 Clare            1     NA
 9 Clinton          6     NA
10 Detroit City   705     12
# … with 38 more rows
```
…
mi_corona2 %>%  
* filter(county != "Detroit City" &
*          county != "Wayne")
```
]]
.column[.content[

```
# A tibble: 46 x 3
   county     cases deaths
   <chr>      <dbl>  <dbl>
 1 Allegan        1     NA
 2 Barry          1     NA
 3 Bay            3     NA
 4 Berrien       10     NA
 5 Calhoun        6     NA
 6 Charlevoix     4     NA
 7 Chippewa       1     NA
 8 Clare          1     NA
 9 Clinton        6     NA
10 Eaton          3     NA
# … with 36 more rows
```
…
mi_corona2 %>%  
  filter(county != "Detroit City" &  
           county != "Wayne") %>%  
* bind_rows(wayne)
```
]]
.column[.content[

```
# A tibble: 47 x 3
   county     cases deaths
   <chr>      <dbl>  <dbl>
 1 Allegan        1     NA
 2 Barry          1     NA
 3 Bay            3     NA
 4 Berrien       10     NA
 5 Calhoun        6     NA
 6 Charlevoix     4     NA
 7 Chippewa       1     NA
 8 Clare          1     NA
 9 Clinton        6     NA
10 Eaton          3     NA
# … with 37 more rows
```
…
mi_corona2 %>%  
  filter(county != "Detroit City" &  
           county != "Wayne") %>%  
  bind_rows(wayne) %>%  
* arrange(county)
```
]]
.column[.content[

```
# A tibble: 47 x 3
   county     cases deaths
   <chr>      <dbl>  <dbl>
 1 Allegan        1     NA
 2 Barry          1     NA
 3 Bay            3     NA
 4 Berrien       10     NA
 5 Calhoun        6     NA
 6 Charlevoix     4     NA
 7 Chippewa       1     NA
 8 Clare          1     NA
 9 Clinton        6     NA
10 Eaton          3     NA
# … with 37 more rows
```
…
