‘The Office’ IMDb ratings
…
.column[.content[

```r
library(tidyverse)  
url <- 'https://raw.githubusercontent.com/rfordatascience/tidytuesday/master/data/2020/2020-03-17/office_ratings.csv'  
*readr::read_csv(url)
```
]]
.column[.content[

```
# A tibble: 188 x 6
   season episode title             imdb_rating total_votes air_date  
    <dbl>   <dbl> <chr>                   <dbl>       <dbl> <date>    
 1      1       1 Pilot                     7.6        3706 2005-03-24
 2      1       2 Diversity Day             8.3        3566 2005-03-29
 3      1       3 Health Care               7.9        2983 2005-04-05
 4      1       4 The Alliance              8.1        2886 2005-04-12
 5      1       5 Basketball                8.4        3179 2005-04-19
 6      1       6 Hot Girl                  7.8        2852 2005-04-26
 7      2       1 The Dundies               8.7        3213 2005-09-20
 8      2       2 Sexual Harassment         8.2        2736 2005-09-27
 9      2       3 Office Olympics           8.4        2742 2005-10-04
10      2       4 The Fire                  8.4        2713 2005-10-11
# … with 178 more rows
```
…
.column[.content[

```r
library(ggrepel)  
*office_ratings
```
]]
.column[.content[

```
# A tibble: 188 x 6
   season episode title             imdb_rating total_votes air_date  
    <dbl>   <dbl> <chr>                   <dbl>       <dbl> <date>    
 1      1       1 Pilot                     7.6        3706 2005-03-24
 2      1       2 Diversity Day             8.3        3566 2005-03-29
 3      1       3 Health Care               7.9        2983 2005-04-05
 4      1       4 The Alliance              8.1        2886 2005-04-12
 5      1       5 Basketball                8.4        3179 2005-04-19
 6      1       6 Hot Girl                  7.8        2852 2005-04-26
 7      2       1 The Dundies               8.7        3213 2005-09-20
 8      2       2 Sexual Harassment         8.2        2736 2005-09-27
 9      2       3 Office Olympics           8.4        2742 2005-10-04
10      2       4 The Fire                  8.4        2713 2005-10-11
# … with 178 more rows
```
…
---

class: split-40
count: false

.column[.content[

```r
*office_ratings
```
]]
.column[.content[

```
# A tibble: 188 x 6
   season episode title             imdb_rating total_votes air_date  
    <dbl>   <dbl> <chr>                   <dbl>       <dbl> <date>    
 1      1       1 Pilot                     7.6        3706 2005-03-24
 2      1       2 Diversity Day             8.3        3566 2005-03-29
 3      1       3 Health Care               7.9        2983 2005-04-05
 4      1       4 The Alliance              8.1        2886 2005-04-12
 5      1       5 Basketball                8.4        3179 2005-04-19
 6      1       6 Hot Girl                  7.8        2852 2005-04-26
 7      2       1 The Dundies               8.7        3213 2005-09-20
 8      2       2 Sexual Harassment         8.2        2736 2005-09-27
 9      2       3 Office Olympics           8.4        2742 2005-10-04
10      2       4 The Fire                  8.4        2713 2005-10-11
# … with 178 more rows
```
…
.column[.content[

```r
office_ratings %>%  
* sample_frac(size = 1, replace = F)
```
]]
.column[.content[

```
# A tibble: 188 x 6
   season episode title             imdb_rating total_votes air_date  
    <dbl>   <dbl> <chr>                   <dbl>       <dbl> <date>    
 1      8       7 Pam's Replacement         7.7        1563 2011-11-10
 2      3       7 Branch Closing            8.5        2260 2006-11-09
 3      5       2 Business Ethics           8.3        1990 2008-10-09
 4      7      15 PDA                       8.4        1736 2011-02-10
 5      3      20 Product Recall            8.7        2409 2007-04-26
 6      2       1 The Dundies               8.7        3213 2005-09-20
 7      7      14 The Search                8.5        1742 2011-02-03
 8      6       2 The Meeting               8.2        1755 2009-09-24
 9      4      12 Did I Stutter?            8.4        2087 2008-05-01
10      5       7 Business Trip             8.2        1867 2008-11-13
# … with 178 more rows
```
…
---

class: split-40
count: false

.column[.content[

```r
*schrute::theoffice
```
]]
.column[.content[

```
# A tibble: 55,130 x 12
   index season episode episode_name director writer character text 
   <int> <chr>  <chr>   <chr>        <chr>    <chr>  <chr>     <chr>
 1     1 01     01      Pilot        Ken Kwa… Ricky… Michael   All …
 2     2 01     01      Pilot        Ken Kwa… Ricky… Jim       Oh, …
 3     3 01     01      Pilot        Ken Kwa… Ricky… Michael   So y…
 4     4 01     01      Pilot        Ken Kwa… Ricky… Jim       Actu…
 5     5 01     01      Pilot        Ken Kwa… Ricky… Michael   All …
 6     6 01     01      Pilot        Ken Kwa… Ricky… Michael   Yes,…
 7     7 01     01      Pilot        Ken Kwa… Ricky… Michael   I've…
 8     8 01     01      Pilot        Ken Kwa… Ricky… Pam       Well…
 9     9 01     01      Pilot        Ken Kwa… Ricky… Michael   If y…
10    10 01     01      Pilot        Ken Kwa… Ricky… Pam       What?
# … with 55,120 more rows, and 4 more variables: text_w_direction <chr>,
#   imdb_rating <dbl>, total_votes <int>, air_date <fct>
```
…
.column[.content[

```r
schrute::theoffice %>%  
* filter(season == "01" & episode == "01" )
```
]]
.column[.content[

```
# A tibble: 229 x 12
   index season episode episode_name director writer character text 
   <int> <chr>  <chr>   <chr>        <chr>    <chr>  <chr>     <chr>
 1     1 01     01      Pilot        Ken Kwa… Ricky… Michael   All …
 2     2 01     01      Pilot        Ken Kwa… Ricky… Jim       Oh, …
 3     3 01     01      Pilot        Ken Kwa… Ricky… Michael   So y…
 4     4 01     01      Pilot        Ken Kwa… Ricky… Jim       Actu…
 5     5 01     01      Pilot        Ken Kwa… Ricky… Michael   All …
 6     6 01     01      Pilot        Ken Kwa… Ricky… Michael   Yes,…
 7     7 01     01      Pilot        Ken Kwa… Ricky… Michael   I've…
 8     8 01     01      Pilot        Ken Kwa… Ricky… Pam       Well…
 9     9 01     01      Pilot        Ken Kwa… Ricky… Michael   If y…
10    10 01     01      Pilot        Ken Kwa… Ricky… Pam       What?
# … with 219 more rows, and 4 more variables: text_w_direction <chr>,
#   imdb_rating <dbl>, total_votes <int>, air_date <fct>
```
…
.column[.content[

```r
schrute::theoffice %>%  
  filter(season == "01" & episode == "01" ) %>%  
* mutate(character = ifelse(character == "Michel",
*                           "Michael",
*                           character))
```
]]
.column[.content[

```
# A tibble: 229 x 12
   index season episode episode_name director writer character text 
   <int> <chr>  <chr>   <chr>        <chr>    <chr>  <chr>     <chr>
 1     1 01     01      Pilot        Ken Kwa… Ricky… Michael   All …
 2     2 01     01      Pilot        Ken Kwa… Ricky… Jim       Oh, …
 3     3 01     01      Pilot        Ken Kwa… Ricky… Michael   So y…
 4     4 01     01      Pilot        Ken Kwa… Ricky… Jim       Actu…
 5     5 01     01      Pilot        Ken Kwa… Ricky… Michael   All …
 6     6 01     01      Pilot        Ken Kwa… Ricky… Michael   Yes,…
 7     7 01     01      Pilot        Ken Kwa… Ricky… Michael   I've…
 8     8 01     01      Pilot        Ken Kwa… Ricky… Pam       Well…
 9     9 01     01      Pilot        Ken Kwa… Ricky… Michael   If y…
10    10 01     01      Pilot        Ken Kwa… Ricky… Pam       What?
# … with 219 more rows, and 4 more variables: text_w_direction <chr>,
#   imdb_rating <dbl>, total_votes <int>, air_date <fct>
```
…
.column[.content[

```r
schrute::theoffice %>%  
  filter(season == "01" & episode == "01" ) %>%  
  mutate(character = ifelse(character == "Michel",  
                            "Michael",  
                            character)) %>%  
* filter(character != "Man")
```
]]
.column[.content[

```
# A tibble: 228 x 12
   index season episode episode_name director writer character text 
   <int> <chr>  <chr>   <chr>        <chr>    <chr>  <chr>     <chr>
 1     1 01     01      Pilot        Ken Kwa… Ricky… Michael   All …
 2     2 01     01      Pilot        Ken Kwa… Ricky… Jim       Oh, …
 3     3 01     01      Pilot        Ken Kwa… Ricky… Michael   So y…
 4     4 01     01      Pilot        Ken Kwa… Ricky… Jim       Actu…
 5     5 01     01      Pilot        Ken Kwa… Ricky… Michael   All …
 6     6 01     01      Pilot        Ken Kwa… Ricky… Michael   Yes,…
 7     7 01     01      Pilot        Ken Kwa… Ricky… Michael   I've…
 8     8 01     01      Pilot        Ken Kwa… Ricky… Pam       Well…
 9     9 01     01      Pilot        Ken Kwa… Ricky… Michael   If y…
10    10 01     01      Pilot        Ken Kwa… Ricky… Pam       What?
# … with 218 more rows, and 4 more variables: text_w_direction <chr>,
#   imdb_rating <dbl>, total_votes <int>, air_date <fct>
```
…
```r
schrute::theoffice %>%  
  filter(season == "01" & episode == "01" ) %>%  
  mutate(character = ifelse(character == "Michel",  
                            "Michael",  
                            character)) %>%  
  filter(character != "Man") %>%  
* mutate(character_lag = lag(character))
```
]]
.column[.content[

```
# A tibble: 228 x 13
   index season episode episode_name director writer character text 
   <int> <chr>  <chr>   <chr>        <chr>    <chr>  <chr>     <chr>
 1     1 01     01      Pilot        Ken Kwa… Ricky… Michael   All …
 2     2 01     01      Pilot        Ken Kwa… Ricky… Jim       Oh, …
 3     3 01     01      Pilot        Ken Kwa… Ricky… Michael   So y…
 4     4 01     01      Pilot        Ken Kwa… Ricky… Jim       Actu…
 5     5 01     01      Pilot        Ken Kwa… Ricky… Michael   All …
 6     6 01     01      Pilot        Ken Kwa… Ricky… Michael   Yes,…
 7     7 01     01      Pilot        Ken Kwa… Ricky… Michael   I've…
 8     8 01     01      Pilot        Ken Kwa… Ricky… Pam       Well…
 9     9 01     01      Pilot        Ken Kwa… Ricky… Michael   If y…
10    10 01     01      Pilot        Ken Kwa… Ricky… Pam       What?
# … with 218 more rows, and 5 more variables: text_w_direction <chr>,
#   imdb_rating <dbl>, total_votes <int>, air_date <fct>, character_lag <chr>
```
…
```r
schrute::theoffice %>%  
  filter(season == "01" & episode == "01" ) %>%  
  mutate(character = ifelse(character == "Michel",  
                            "Michael",  
                            character)) %>%  
  filter(character != "Man") %>%  
  mutate(character_lag = lag(character)) %>%  
* select(character, character_lag)
```
]]
.column[.content[

```
# A tibble: 228 x 2
   character character_lag
   <chr>     <chr>        
 1 Michael   <NA>         
 2 Jim       Michael      
 3 Michael   Jim          
 4 Jim       Michael      
 5 Michael   Jim          
 6 Michael   Michael      
 7 Michael   Michael      
 8 Pam       Michael      
 9 Michael   Pam          
10 Pam       Michael      
# … with 218 more rows
```
…
```
# A tibble: 227 x 2
   character character_lag
   <chr>     <chr>        
 1 Jim       Michael      
 2 Michael   Jim          
 3 Jim       Michael      
 4 Michael   Jim          
 5 Michael   Michael      
 6 Michael   Michael      
 7 Pam       Michael      
 8 Michael   Pam          
 9 Pam       Michael      
10 Michael   Pam          
# … with 217 more rows
```
…
```
# A tibble: 206 x 2
   character character_lag
   <chr>     <chr>        
 1 Jim       Michael      
 2 Michael   Jim          
 3 Jim       Michael      
 4 Michael   Jim          
 5 Pam       Michael      
 6 Michael   Pam          
 7 Pam       Michael      
 8 Michael   Pam          
 9 Pam       Michael      
10 Michael   Pam          
# … with 196 more rows
```
…
