Klaus Schulte’s ggplots, uses Claus Wilke’s new ggtext
…
---

class: split-40
count: false

.column[.content[

```r
*df
```
]]
.column[.content[

```
# A tibble: 22 x 8
   Sport       `2017` `2013` `2008` `2007` `2006` `2005` `2004`
   <chr>        <dbl>  <dbl>  <dbl>  <dbl>  <dbl>  <dbl>  <dbl>
 1 Football        37     39     41     43     43     34     37
 2 Basketball      11     12      9     11     12     12     13
 3 Baseball         9     14     10     13     11     12     10
 4 Soccer           7      4      3      2      2      3      2
 5 Ice hockey       4      3      4      4      2      4      3
 6 Auto racing      2      2      3      3      4      5      5
 7 Tennis           2      3      1      1      1      3      2
 8 Golf             1      2      2      2      3      2      2
 9 Volleyball       1      0      1      0      0      1      0
10 Boxing           1      1      2      1      2      1      1
# … with 12 more rows
```
…
.column[.content[

```r
df %>%  
* janitor::clean_names()
```
]]
.column[.content[

```
# A tibble: 22 x 8
   sport       x2017 x2013 x2008 x2007 x2006 x2005 x2004
   <chr>       <dbl> <dbl> <dbl> <dbl> <dbl> <dbl> <dbl>
 1 Football       37    39    41    43    43    34    37
 2 Basketball     11    12     9    11    12    12    13
 3 Baseball        9    14    10    13    11    12    10
 4 Soccer          7     4     3     2     2     3     2
 5 Ice hockey      4     3     4     4     2     4     3
 6 Auto racing     2     2     3     3     4     5     5
 7 Tennis          2     3     1     1     1     3     2
 8 Golf            1     2     2     2     3     2     2
 9 Volleyball      1     0     1     0     0     1     0
10 Boxing          1     1     2     1     2     1     1
# … with 12 more rows
```
…
.column[.content[

```r
df %>%  
  janitor::clean_names() %>%  
* arrange(-x2017)
```
]]
.column[.content[

```
# A tibble: 22 x 8
   sport       x2017 x2013 x2008 x2007 x2006 x2005 x2004
   <chr>       <dbl> <dbl> <dbl> <dbl> <dbl> <dbl> <dbl>
 1 Football       37    39    41    43    43    34    37
 2 None           15    11    14    12    12    13    12
 3 Basketball     11    12     9    11    12    12    13
 4 Baseball        9    14    10    13    11    12    10
 5 Soccer          7     4     3     2     2     3     2
 6 Other           5     4     6     3     3     4     4
 7 Ice hockey      4     3     4     4     2     4     3
 8 Auto racing     2     2     3     3     4     5     5
 9 Tennis          2     3     1     1     1     3     2
10 Golf            1     2     2     2     3     2     2
# … with 12 more rows
```
…
.column[.content[

```r
df %>%  
  janitor::clean_names() %>%  
  arrange(-x2017) %>%  
* select(1:2)
```
]]
.column[.content[

```
# A tibble: 22 x 2
   sport       x2017
   <chr>       <dbl>
 1 Football       37
 2 None           15
 3 Basketball     11
 4 Baseball        9
 5 Soccer          7
 6 Other           5
 7 Ice hockey      4
 8 Auto racing     2
 9 Tennis          2
10 Golf            1
# … with 12 more rows
```
…
.column[.content[

```r
df %>%  
  janitor::clean_names() %>%  
  arrange(-x2017) %>%  
  select(1:2) %>%  
* mutate(sport_dummy = sport != "None")
```
]]
.column[.content[

```
# A tibble: 22 x 3
   sport       x2017 sport_dummy
   <chr>       <dbl> <lgl>      
 1 Football       37 TRUE       
 2 None           15 FALSE      
 3 Basketball     11 TRUE       
 4 Baseball        9 TRUE       
 5 Soccer          7 TRUE       
 6 Other           5 TRUE       
 7 Ice hockey      4 TRUE       
 8 Auto racing     2 TRUE       
 9 Tennis          2 TRUE       
10 Golf            1 TRUE       
# … with 12 more rows
```
…
